p0 p1 p2 p3 p4 p5 p6 p7 pX
a b c
p0 a p1
p0 b pX
p0 c pX
p1 a pX
p1 b p2
p1 c pX
p2 a p3
p2 b pX
p2 c p4
p3 a p3
p3 b pX
p3 c p5
p4 a pX
p4 b p6
p4 c pX
p5 a pX
p5 b p6
p5 c p7
p6 a pX
p6 b pX
p6 c p7
p7 a pX
p7 b pX
p7 c p7
pX a pX
pX b pX
pX c pX
p0
p5 p7