s a 

s -[(a(aa+b)*ab+b)((ba+a)(aa+b)*ab+bb)*((ba+a)(aa+b)*)+(a(aa+b)*)]-> a



3 s a 

3 -[(ba+a)(aa+b)*ab+bb]-> 3
3 -[(ba+a)(aa+b)*]-> a
s -[a(aa+b)*ab+b]-> 3
s -[a(aa+b)*]-> a



2 3 s a 

2 -[~]-> a
3 -[~]-> a
2 -[aa+b]-> 2
2 -[ab]-> 3
3 -[ba+a]-> 2
3 -[bb]-> 3
s -[a]-> 2
s -[b]-> 3



s a 

s -[0*1(00*1)*1(00*1(00*1)*1)*1(0+1)*]-> a



q3 s a 

q3 -[0+1]-> q3
q3 -[~]-> a
s -[0*1(00*1)*1(00*1(00*1)*1)*1]-> q3



q2 q3 s a 

q2 -[1]-> q3
q3 -[0+1]-> q3
q3 -[~]-> a
q2 -[00*1(00*1)*1]-> q2
s -[0*1(00*1)*1]-> q2



q1 q2 q3 s a 

q1 -[1]-> q2
q2 -[1]-> q3
q3 -[0+1]-> q3
q3 -[~]-> a
q1 -[00*1]-> q1
q2 -[00*1]-> q1
s -[0*1]-> q1



s a 

s -[a*b(a+b)*]-> a



2 s a 

2 -[a+b]-> 2
2 -[~]-> a
s -[a*b]-> 2



s a 

s -[(a(aa+b)*ab+b)((ba+a)(aa+b)*ab+bb)*((ba+a)(aa+b)*)+(a(aa+b)*)]-> a



3 s a 

3 -[(ba+a)(aa+b)*ab+bb]-> 3
3 -[(ba+a)(aa+b)*]-> a
s -[a(aa+b)*ab+b]-> 3
s -[a(aa+b)*]-> a



2 3 s a 

2 -[~]-> a
3 -[~]-> a
2 -[aa+b]-> 2
2 -[ab]-> 3
3 -[ba+a]-> 2
3 -[bb]-> 3
s -[a]-> 2
s -[b]-> 3



s a 

s -[(a(aa+b)*ab+b)((ba+a)(aa+b)*ab+bb)*((ba+a)(aa+b)*)+(a(aa+b)*)]-> a



3 s a 

3 -[(ba+a)(aa+b)*ab+bb]-> 3
3 -[(ba+a)(aa+b)*]-> a
s -[a(aa+b)*ab+b]-> 3
s -[a(aa+b)*]-> a



2 3 s a 

2 -[~]-> a
3 -[~]-> a
2 -[aa+b]-> 2
2 -[ab]-> 3
3 -[ba+a]-> 2
3 -[bb]-> 3
s -[a]-> 2
s -[b]-> 3



s a 

s -[(a(ba)*bc+c)]-> a



q2 s a 

q2 -[~]-> a
s -[a(ba)*bc+c]-> q2



q1 q2 s a 

q2 -[~]-> a
q1 -[ba]-> q1
q1 -[bc]-> q2
s -[a]-> q1
s -[c]-> q2



s a 

s -[(a(ba)*bc+c)]-> a



q2 s a 

q2 -[~]-> a
s -[a(ba)*bc+c]-> q2



q1 q2 s a 

q2 -[~]-> a
q1 -[ba]-> q1
q1 -[bc]-> q2
s -[a]-> q1
s -[c]-> q2



s a 

s -[(a(aa+b)*ab+b)((ba+a)(aa+b)*ab+bb)*((ba+a)(aa+b)*)+(a(aa+b)*)]-> a



3 s a 

3 -[(ba+a)(aa+b)*ab+bb]-> 3
3 -[(ba+a)(aa+b)*]-> a
s -[a(aa+b)*ab+b]-> 3
s -[a(aa+b)*]-> a



2 3 s a 

2 -[~]-> a
3 -[~]-> a
2 -[aa+b]-> 2
2 -[ab]-> 3
3 -[ba+a]-> 2
3 -[bb]-> 3
s -[a]-> 2
s -[b]-> 3



s a 

s -[(a(ba)*bc+c)]-> a



q2 s a 

q2 -[~]-> a
s -[a(ba)*bc+c]-> q2



q1 q2 s a 

q2 -[~]-> a
q1 -[ba]-> q1
q1 -[bc]-> q2
s -[a]-> q1
s -[c]-> q2



s a 

s -[(a(ba)*bc+c)]-> a



q2 s a 

q2 -[~]-> a
s -[a(ba)*bc+c]-> q2



q1 q2 s a 

q2 -[~]-> a
q1 -[ba]-> q1
q1 -[bc]-> q2
s -[a]-> q1
s -[c]-> q2



q1 q2 s a 

q2 -[~]-> a
q1 -[ba]-> q1
q1 -[bc]-> q2
s -[a]-> q1
s -[c]-> q2



q2 s a 

q2 -[~]-> a
s -[a(ba)*bc+c]-> q2



s a 

s -[(a(ba)*bc+c)]-> a



q2 s a 

q2 -[~]-> a
s -[a(ba)*bc+c]-> q2



q1 q2 s a 

q2 -[~]-> a
q1 -[ba]-> q1
q1 -[bc]-> q2
s -[a]-> q1
s -[c]-> q2



s a 

s -[(a(aa+b)*ab+b)((ba+a)(aa+b)*ab+bb)*((ba+a)(aa+b)*)+(a(aa+b)*)]-> a



3 s a 

3 -[(ba+a)(aa+b)*ab+bb]-> 3
3 -[(ba+a)(aa+b)*]-> a
s -[a(aa+b)*ab+b]-> 3
s -[a(aa+b)*]-> a



2 3 s a 

2 -[~]-> a
3 -[~]-> a
2 -[aa+b]-> 2
2 -[ab]-> 3
3 -[ba+a]-> 2
3 -[bb]-> 3
s -[a]-> 2
s -[b]-> 3



s a 

s -[((((abaaaa*cb+((abaac+abac)b))c+abcbc)cc*a+((abaaaa*cc+((abaac+abac)c))c*a))c)((a(aca)*b(b(aca)*b)*b(aca)*c+a(aca)*c)(a(aca)*b(b(aca)*b)*b(aca)*c+a(aca)*c)*(a(aca)*b(b(aca)*b)*b(aca)*+a(aca)*)+(a(aca)*b(b(aca)*b)*b(aca)*+a(aca)*))+((((((abaaaa*cb+((abaac+abac)b))c+abcbc)cc*a+((abaaaa*cc+((abaac+abac)c))c*a))(aca(aca)*b+b)+(((((abaaaa*cb+((abaac+abac)b))c+abcbc)ac+((abaaaa*ca+((abaac+abac)a))c))a+((abaaaa*cb+((abaac+abac)b))b))(aca)*b+(((abaaaa*cb+((abaac+abac)b))c+abcbc)(cc*b+b)+((abaaaa*cc+((abaac+abac)c))c*b))))(b(aca)*b)*b(aca)*c+((((abaaaa*cb+((abaac+abac)b))c+abcbc)cc*a+((abaaaa*cc+((abaac+abac)c))c*a))aca(aca)*c+(((((abaaaa*cb+((abaac+abac)b))c+abcbc)ac+((abaaaa*ca+((abaac+abac)a))c))a+((abaaaa*cb+((abaac+abac)b))b))(aca)*c)))(a(aca)*b(b(aca)*b)*b(aca)*c+a(aca)*c)*(a(aca)*b(b(aca)*b)*b(aca)*+a(aca)*)+(abaabaa(baa)*+(((((abaaaa*cb+((abaac+abac)b))c+abcbc)cc*a+((abaaaa*cc+((abaac+abac)c))c*a))(aca(aca)*b+b)+(((((abaaaa*cb+((abaac+abac)b))c+abcbc)ac+((abaaaa*ca+((abaac+abac)a))c))a+((abaaaa*cb+((abaac+abac)b))b))(aca)*b+(((abaaaa*cb+((abaac+abac)b))c+abcbc)(cc*b+b)+((abaaaa*cc+((abaac+abac)c))c*b))))(b(aca)*b)*b(aca)*+((((abaaaa*cb+((abaac+abac)b))c+abcbc)cc*a+((abaaaa*cc+((abaac+abac)c))c*a))aca(aca)*+(((((abaaaa*cb+((abaac+abac)b))c+abcbc)ac+((abaaaa*ca+((abaac+abac)a))c))a+((abaaaa*cb+((abaac+abac)b))b))(aca)*+(((abaaaa*cb+((abaac+abac)b))c+abcbc)cc*+((abaaaa*cc+((abaac+abac)c))c*+(abaaaa*c+((abaac+abac)+(abaa+(ab+(c+a))))))))))))]-> a



{13,15} s a 

s -[(((abaaaa*cb+((abaac+abac)b))c+abcbc)cc*a+((abaaaa*cc+((abaac+abac)c))c*a))c]-> {13,15}
{13,15} -[(a(aca)*b(b(aca)*b)*b(aca)*c+a(aca)*c)(a(aca)*b(b(aca)*b)*b(aca)*c+a(aca)*c)*(a(aca)*b(b(aca)*b)*b(aca)*+a(aca)*)+(a(aca)*b(b(aca)*b)*b(aca)*+a(aca)*)]-> a
s -[(((((abaaaa*cb+((abaac+abac)b))c+abcbc)cc*a+((abaaaa*cc+((abaac+abac)c))c*a))(aca(aca)*b+b)+(((((abaaaa*cb+((abaac+abac)b))c+abcbc)ac+((abaaaa*ca+((abaac+abac)a))c))a+((abaaaa*cb+((abaac+abac)b))b))(aca)*b+(((abaaaa*cb+((abaac+abac)b))c+abcbc)(cc*b+b)+((abaaaa*cc+((abaac+abac)c))c*b))))(b(aca)*b)*b(aca)*c+((((abaaaa*cb+((abaac+abac)b))c+abcbc)cc*a+((abaaaa*cc+((abaac+abac)c))c*a))aca(aca)*c+(((((abaaaa*cb+((abaac+abac)b))c+abcbc)ac+((abaaaa*ca+((abaac+abac)a))c))a+((abaaaa*cb+((abaac+abac)b))b))(aca)*c)))(a(aca)*b(b(aca)*b)*b(aca)*c+a(aca)*c)*(a(aca)*b(b(aca)*b)*b(aca)*+a(aca)*)+(abaabaa(baa)*+(((((abaaaa*cb+((abaac+abac)b))c+abcbc)cc*a+((abaaaa*cc+((abaac+abac)c))c*a))(aca(aca)*b+b)+(((((abaaaa*cb+((abaac+abac)b))c+abcbc)ac+((abaaaa*ca+((abaac+abac)a))c))a+((abaaaa*cb+((abaac+abac)b))b))(aca)*b+(((abaaaa*cb+((abaac+abac)b))c+abcbc)(cc*b+b)+((abaaaa*cc+((abaac+abac)c))c*b))))(b(aca)*b)*b(aca)*+((((abaaaa*cb+((abaac+abac)b))c+abcbc)cc*a+((abaaaa*cc+((abaac+abac)c))c*a))aca(aca)*+(((((abaaaa*cb+((abaac+abac)b))c+abcbc)ac+((abaaaa*ca+((abaac+abac)a))c))a+((abaaaa*cb+((abaac+abac)b))b))(aca)*+(((abaaaa*cb+((abaac+abac)b))c+abcbc)cc*+((abaaaa*cc+((abaac+abac)c))c*+(abaaaa*c+((abaac+abac)+(abaa+(ab+(c+a)))))))))))]-> a



{15} {13,15} s a 

s -[(((abaaaa*cb+((abaac+abac)b))c+abcbc)cc*a+((abaaaa*cc+((abaac+abac)c))c*a))c]-> {13,15}
{15} -[a(aca)*b(b(aca)*b)*b(aca)*c+a(aca)*c]-> {15}
{15} -[a(aca)*b(b(aca)*b)*b(aca)*+a(aca)*]-> a
{13,15} -[a(aca)*b(b(aca)*b)*b(aca)*c+a(aca)*c]-> {15}
{13,15} -[a(aca)*b(b(aca)*b)*b(aca)*+a(aca)*]-> a
s -[((((abaaaa*cb+((abaac+abac)b))c+abcbc)cc*a+((abaaaa*cc+((abaac+abac)c))c*a))(aca(aca)*b+b)+(((((abaaaa*cb+((abaac+abac)b))c+abcbc)ac+((abaaaa*ca+((abaac+abac)a))c))a+((abaaaa*cb+((abaac+abac)b))b))(aca)*b+(((abaaaa*cb+((abaac+abac)b))c+abcbc)(cc*b+b)+((abaaaa*cc+((abaac+abac)c))c*b))))(b(aca)*b)*b(aca)*c+((((abaaaa*cb+((abaac+abac)b))c+abcbc)cc*a+((abaaaa*cc+((abaac+abac)c))c*a))aca(aca)*c+(((((abaaaa*cb+((abaac+abac)b))c+abcbc)ac+((abaaaa*ca+((abaac+abac)a))c))a+((abaaaa*cb+((abaac+abac)b))b))(aca)*c))]-> {15}
s -[abaabaa(baa)*+(((((abaaaa*cb+((abaac+abac)b))c+abcbc)cc*a+((abaaaa*cc+((abaac+abac)c))c*a))(aca(aca)*b+b)+(((((abaaaa*cb+((abaac+abac)b))c+abcbc)ac+((abaaaa*ca+((abaac+abac)a))c))a+((abaaaa*cb+((abaac+abac)b))b))(aca)*b+(((abaaaa*cb+((abaac+abac)b))c+abcbc)(cc*b+b)+((abaaaa*cc+((abaac+abac)c))c*b))))(b(aca)*b)*b(aca)*+((((abaaaa*cb+((abaac+abac)b))c+abcbc)cc*a+((abaaaa*cc+((abaac+abac)c))c*a))aca(aca)*+(((((abaaaa*cb+((abaac+abac)b))c+abcbc)ac+((abaaaa*ca+((abaac+abac)a))c))a+((abaaaa*cb+((abaac+abac)b))b))(aca)*+(((abaaaa*cb+((abaac+abac)b))c+abcbc)cc*+((abaaaa*cc+((abaac+abac)c))c*+(abaaaa*c+((abaac+abac)+(abaa+(ab+(c+a))))))))))]-> a



{20,23} {15} {13,15} s a 

{20,23} -[~]-> a
{20,23} -[baa]-> {20,23}
s -[abaabaa]-> {20,23}
s -[(((abaaaa*cb+((abaac+abac)b))c+abcbc)cc*a+((abaaaa*cc+((abaac+abac)c))c*a))c]-> {13,15}
{15} -[a(aca)*b(b(aca)*b)*b(aca)*c+a(aca)*c]-> {15}
{15} -[a(aca)*b(b(aca)*b)*b(aca)*+a(aca)*]-> a
{13,15} -[a(aca)*b(b(aca)*b)*b(aca)*c+a(aca)*c]-> {15}
{13,15} -[a(aca)*b(b(aca)*b)*b(aca)*+a(aca)*]-> a
s -[((((abaaaa*cb+((abaac+abac)b))c+abcbc)cc*a+((abaaaa*cc+((abaac+abac)c))c*a))(aca(aca)*b+b)+(((((abaaaa*cb+((abaac+abac)b))c+abcbc)ac+((abaaaa*ca+((abaac+abac)a))c))a+((abaaaa*cb+((abaac+abac)b))b))(aca)*b+(((abaaaa*cb+((abaac+abac)b))c+abcbc)(cc*b+b)+((abaaaa*cc+((abaac+abac)c))c*b))))(b(aca)*b)*b(aca)*c+((((abaaaa*cb+((abaac+abac)b))c+abcbc)cc*a+((abaaaa*cc+((abaac+abac)c))c*a))aca(aca)*c+(((((abaaaa*cb+((abaac+abac)b))c+abcbc)ac+((abaaaa*ca+((abaac+abac)a))c))a+((abaaaa*cb+((abaac+abac)b))b))(aca)*c))]-> {15}
s -[((((abaaaa*cb+((abaac+abac)b))c+abcbc)cc*a+((abaaaa*cc+((abaac+abac)c))c*a))(aca(aca)*b+b)+(((((abaaaa*cb+((abaac+abac)b))c+abcbc)ac+((abaaaa*ca+((abaac+abac)a))c))a+((abaaaa*cb+((abaac+abac)b))b))(aca)*b+(((abaaaa*cb+((abaac+abac)b))c+abcbc)(cc*b+b)+((abaaaa*cc+((abaac+abac)c))c*b))))(b(aca)*b)*b(aca)*+((((abaaaa*cb+((abaac+abac)b))c+abcbc)cc*a+((abaaaa*cc+((abaac+abac)c))c*a))aca(aca)*+(((((abaaaa*cb+((abaac+abac)b))c+abcbc)ac+((abaaaa*ca+((abaac+abac)a))c))a+((abaaaa*cb+((abaac+abac)b))b))(aca)*+(((abaaaa*cb+((abaac+abac)b))c+abcbc)cc*+((abaaaa*cc+((abaac+abac)c))c*+(abaaaa*c+((abaac+abac)+(abaa+(ab+(c+a)))))))))]-> a



{10} {20,23} {15} {13,15} s a 

{20,23} -[~]-> a
{20,23} -[baa]-> {20,23}
s -[abaabaa]-> {20,23}
{10} -[b(aca)*b]-> {10}
{10} -[b(aca)*c]-> {15}
{10} -[b(aca)*]-> a
{15} -[a(aca)*b]-> {10}
{15} -[a(aca)*c]-> {15}
{15} -[a(aca)*]-> a
{13,15} -[a(aca)*b]-> {10}
{13,15} -[a(aca)*c]-> {15}
{13,15} -[a(aca)*]-> a
s -[(((abaaaa*cb+((abaac+abac)b))c+abcbc)cc*a+((abaaaa*cc+((abaac+abac)c))c*a))(aca(aca)*b+b)+(((((abaaaa*cb+((abaac+abac)b))c+abcbc)ac+((abaaaa*ca+((abaac+abac)a))c))a+((abaaaa*cb+((abaac+abac)b))b))(aca)*b+(((abaaaa*cb+((abaac+abac)b))c+abcbc)(cc*b+b)+((abaaaa*cc+((abaac+abac)c))c*b)))]-> {10}
s -[(((abaaaa*cb+((abaac+abac)b))c+abcbc)cc*a+((abaaaa*cc+((abaac+abac)c))c*a))aca(aca)*c+(((((abaaaa*cb+((abaac+abac)b))c+abcbc)ac+((abaaaa*ca+((abaac+abac)a))c))a+((abaaaa*cb+((abaac+abac)b))b))(aca)*c)]-> {15}
s -[(((abaaaa*cb+((abaac+abac)b))c+abcbc)cc*a+((abaaaa*cc+((abaac+abac)c))c*a))c]-> {13,15}
s -[(((abaaaa*cb+((abaac+abac)b))c+abcbc)cc*a+((abaaaa*cc+((abaac+abac)c))c*a))aca(aca)*+(((((abaaaa*cb+((abaac+abac)b))c+abcbc)ac+((abaaaa*ca+((abaac+abac)a))c))a+((abaaaa*cb+((abaac+abac)b))b))(aca)*+(((abaaaa*cb+((abaac+abac)b))c+abcbc)cc*+((abaaaa*cc+((abaac+abac)c))c*+(abaaaa*c+((abaac+abac)+(abaa+(ab+(c+a))))))))]-> a



{9,11,12,14,23} {10} {20,23} {15} {13,15} s a 

{9,11,12,14,23} -[c]-> {13,15}
{20,23} -[~]-> a
s -[((abaaaa*cb+((abaac+abac)b))c+abcbc)cc*a+((abaaaa*cc+((abaac+abac)c))c*a)]-> {9,11,12,14,23}
{20,23} -[baa]-> {20,23}
s -[abaabaa]-> {20,23}
{9,11,12,14,23} -[aca(aca)*b+b]-> {10}
{9,11,12,14,23} -[aca(aca)*c]-> {15}
{9,11,12,14,23} -[aca(aca)*]-> a
{10} -[b(aca)*b]-> {10}
{10} -[b(aca)*c]-> {15}
{10} -[b(aca)*]-> a
{15} -[a(aca)*b]-> {10}
{15} -[a(aca)*c]-> {15}
{15} -[a(aca)*]-> a
{13,15} -[a(aca)*b]-> {10}
{13,15} -[a(aca)*c]-> {15}
{13,15} -[a(aca)*]-> a
s -[((((abaaaa*cb+((abaac+abac)b))c+abcbc)ac+((abaaaa*ca+((abaac+abac)a))c))a+((abaaaa*cb+((abaac+abac)b))b))(aca)*b+(((abaaaa*cb+((abaac+abac)b))c+abcbc)(cc*b+b)+((abaaaa*cc+((abaac+abac)c))c*b))]-> {10}
s -[((((abaaaa*cb+((abaac+abac)b))c+abcbc)ac+((abaaaa*ca+((abaac+abac)a))c))a+((abaaaa*cb+((abaac+abac)b))b))(aca)*c]-> {15}
s -[((((abaaaa*cb+((abaac+abac)b))c+abcbc)ac+((abaaaa*ca+((abaac+abac)a))c))a+((abaaaa*cb+((abaac+abac)b))b))(aca)*+(((abaaaa*cb+((abaac+abac)b))c+abcbc)cc*+((abaaaa*cc+((abaac+abac)c))c*+(abaaaa*c+((abaac+abac)+(abaa+(ab+(c+a)))))))]-> a



{9,11,14,23} {9,11,12,14,23} {10} {20,23} {15} {13,15} s a 

{9,11,14,23} -[b]-> {10}
{9,11,14,23} -[c]-> {15}
{9,11,12,14,23} -[b]-> {10}
{9,11,12,14,23} -[c]-> {13,15}
{10} -[b]-> {9,11,14,23}
{15} -[a]-> {9,11,14,23}
{13,15} -[a]-> {9,11,14,23}
{9,11,14,23} -[~]-> a
{9,11,12,14,23} -[~]-> a
{20,23} -[~]-> a
s -[((abaaaa*cb+((abaac+abac)b))c+abcbc)cc*a+((abaaaa*cc+((abaac+abac)c))c*a)]-> {9,11,12,14,23}
s -[((abaaaa*cb+((abaac+abac)b))c+abcbc)(cc*b+b)+((abaaaa*cc+((abaac+abac)c))c*b)]-> {10}
s -[((abaaaa*cb+((abaac+abac)b))c+abcbc)cc*+((abaaaa*cc+((abaac+abac)c))c*+(abaaaa*c+((abaac+abac)+(abaa+(ab+(c+a))))))]-> a
{20,23} -[baa]-> {20,23}
s -[abaabaa]-> {20,23}
{9,11,14,23} -[aca]-> {9,11,14,23}
{9,11,12,14,23} -[aca]-> {9,11,14,23}
s -[(((abaaaa*cb+((abaac+abac)b))c+abcbc)ac+((abaaaa*ca+((abaac+abac)a))c))a+((abaaaa*cb+((abaac+abac)b))b)]-> {9,11,14,23}



{13} {9,11,14,23} {9,11,12,14,23} {10} {20,23} {15} {13,15} s a 

{13} -[a]-> {9,11,14,23}
{9,11,14,23} -[b]-> {10}
{9,11,14,23} -[c]-> {15}
{9,11,12,14,23} -[b]-> {10}
{9,11,12,14,23} -[c]-> {13,15}
{10} -[b]-> {9,11,14,23}
{15} -[a]-> {9,11,14,23}
{13,15} -[a]-> {9,11,14,23}
{9,11,14,23} -[~]-> a
{9,11,12,14,23} -[~]-> a
{20,23} -[~]-> a
{9,11,14,23} -[ac]-> {13}
{9,11,12,14,23} -[ac]-> {13}
s -[(abaaaa*cb+((abaac+abac)b))b]-> {9,11,14,23}
s -[((abaaaa*cb+((abaac+abac)b))c+abcbc)ac+((abaaaa*ca+((abaac+abac)a))c)]-> {13}
s -[((abaaaa*cb+((abaac+abac)b))c+abcbc)cc*a+((abaaaa*cc+((abaac+abac)c))c*a)]-> {9,11,12,14,23}
s -[((abaaaa*cb+((abaac+abac)b))c+abcbc)(cc*b+b)+((abaaaa*cc+((abaac+abac)c))c*b)]-> {10}
s -[((abaaaa*cb+((abaac+abac)b))c+abcbc)cc*+((abaaaa*cc+((abaac+abac)c))c*+(abaaaa*c+((abaac+abac)+(abaa+(ab+(c+a))))))]-> a
{20,23} -[baa]-> {20,23}
s -[abaabaa]-> {20,23}



{19,22} {13} {9,11,14,23} {9,11,12,14,23} {10} {20,23} {15} {13,15} s a 

{19,22} -[a]-> {20,23}
{13} -[a]-> {9,11,14,23}
{9,11,14,23} -[b]-> {10}
{9,11,14,23} -[c]-> {15}
{9,11,12,14,23} -[b]-> {10}
{9,11,12,14,23} -[c]-> {13,15}
{10} -[b]-> {9,11,14,23}
{15} -[a]-> {9,11,14,23}
{13,15} -[a]-> {9,11,14,23}
{9,11,14,23} -[~]-> a
{9,11,12,14,23} -[~]-> a
{20,23} -[~]-> a
{20,23} -[ba]-> {19,22}
s -[abaaba]-> {19,22}
{9,11,14,23} -[ac]-> {13}
{9,11,12,14,23} -[ac]-> {13}
s -[(abaaaa*cb+((abaac+abac)b))b]-> {9,11,14,23}
s -[((abaaaa*cb+((abaac+abac)b))c+abcbc)ac+((abaaaa*ca+((abaac+abac)a))c)]-> {13}
s -[((abaaaa*cb+((abaac+abac)b))c+abcbc)cc*a+((abaaaa*cc+((abaac+abac)c))c*a)]-> {9,11,12,14,23}
s -[((abaaaa*cb+((abaac+abac)b))c+abcbc)(cc*b+b)+((abaaaa*cc+((abaac+abac)c))c*b)]-> {10}
s -[((abaaaa*cb+((abaac+abac)b))c+abcbc)cc*+((abaaaa*cc+((abaac+abac)c))c*+(abaaaa*c+((abaac+abac)+(abaa+(ab+(c+a))))))]-> a



{8,9,11,14,23} {19,22} {13} {9,11,14,23} {9,11,12,14,23} {10} {20,23} {15} {13,15} s a 

{19,22} -[a]-> {20,23}
{13} -[a]-> {9,11,14,23}
{9,11,14,23} -[b]-> {10}
{9,11,14,23} -[c]-> {15}
{9,11,12,14,23} -[b]-> {10}
{9,11,12,14,23} -[c]-> {13,15}
{10} -[b]-> {9,11,14,23}
{15} -[a]-> {9,11,14,23}
{13,15} -[a]-> {9,11,14,23}
{9,11,14,23} -[~]-> a
{9,11,12,14,23} -[~]-> a
{20,23} -[~]-> a
{20,23} -[ba]-> {19,22}
s -[abaaba]-> {19,22}
{8,9,11,14,23} -[ac]-> {13}
{9,11,14,23} -[ac]-> {13}
{9,11,12,14,23} -[ac]-> {13}
s -[(abaaaa*ca+((abaac+abac)a))c]-> {13}
s -[(abaaaa*cb+((abaac+abac)b))c+abcbc]-> {8,9,11,14,23}
s -[(abaaaa*cb+((abaac+abac)b))b]-> {9,11,14,23}
{8,9,11,14,23} -[cc*a]-> {9,11,12,14,23}
{8,9,11,14,23} -[cc*b+b]-> {10}
{8,9,11,14,23} -[cc*]-> a
s -[(abaaaa*cc+((abaac+abac)c))c*a]-> {9,11,12,14,23}
s -[(abaaaa*cc+((abaac+abac)c))c*b]-> {10}
s -[(abaaaa*cc+((abaac+abac)c))c*+(abaaaa*c+((abaac+abac)+(abaa+(ab+(c+a)))))]-> a



{8,9,11,14,15,23} {8,9,11,14,23} {19,22} {13} {9,11,14,23} {9,11,12,14,23} {10} {20,23} {15} {13,15} s a 

{8,9,11,14,15,23} -[a]-> {9,11,12,14,23}
{8,9,11,14,15,23} -[b]-> {10}
{8,9,11,14,15,23} -[c]-> {8,9,11,14,15,23}
{8,9,11,14,23} -[b]-> {10}
{8,9,11,14,23} -[c]-> {8,9,11,14,15,23}
{19,22} -[a]-> {20,23}
{13} -[a]-> {9,11,14,23}
{9,11,14,23} -[b]-> {10}
{9,11,14,23} -[c]-> {15}
{9,11,12,14,23} -[b]-> {10}
{9,11,12,14,23} -[c]-> {13,15}
{10} -[b]-> {9,11,14,23}
{15} -[a]-> {9,11,14,23}
{13,15} -[a]-> {9,11,14,23}
{8,9,11,14,15,23} -[~]-> a
{8,9,11,14,23} -[~]-> a
{9,11,14,23} -[~]-> a
{9,11,12,14,23} -[~]-> a
{20,23} -[~]-> a
s -[abaaaa*cc+((abaac+abac)c)]-> {8,9,11,14,15,23}
s -[abaaaa*c+((abaac+abac)+(abaa+(ab+(c+a))))]-> a
{20,23} -[ba]-> {19,22}
s -[abaaba]-> {19,22}
{8,9,11,14,23} -[ac]-> {13}
{9,11,14,23} -[ac]-> {13}
{9,11,12,14,23} -[ac]-> {13}
s -[(abaaaa*ca+((abaac+abac)a))c]-> {13}
s -[(abaaaa*cb+((abaac+abac)b))c+abcbc]-> {8,9,11,14,23}
s -[(abaaaa*cb+((abaac+abac)b))b]-> {9,11,14,23}



{7,10} {8,9,11,14,15,23} {8,9,11,14,23} {19,22} {13} {9,11,14,23} {9,11,12,14,23} {10} {20,23} {15} {13,15} s a 

{7,10} -[b]-> {9,11,14,23}
{7,10} -[c]-> {8,9,11,14,23}
{8,9,11,14,15,23} -[a]-> {9,11,12,14,23}
{8,9,11,14,15,23} -[b]-> {10}
{8,9,11,14,15,23} -[c]-> {8,9,11,14,15,23}
{8,9,11,14,23} -[b]-> {10}
{8,9,11,14,23} -[c]-> {8,9,11,14,15,23}
{19,22} -[a]-> {20,23}
{13} -[a]-> {9,11,14,23}
{9,11,14,23} -[b]-> {10}
{9,11,14,23} -[c]-> {15}
{9,11,12,14,23} -[b]-> {10}
{9,11,12,14,23} -[c]-> {13,15}
{10} -[b]-> {9,11,14,23}
{15} -[a]-> {9,11,14,23}
{13,15} -[a]-> {9,11,14,23}
{8,9,11,14,15,23} -[~]-> a
{8,9,11,14,23} -[~]-> a
{9,11,14,23} -[~]-> a
{9,11,12,14,23} -[~]-> a
{20,23} -[~]-> a
s -[abcbc]-> {8,9,11,14,23}
s -[abaaaa*cb+((abaac+abac)b)]-> {7,10}
s -[abaaaa*cc+((abaac+abac)c)]-> {8,9,11,14,15,23}
s -[abaaaa*c+((abaac+abac)+(abaa+(ab+(c+a))))]-> a
{20,23} -[ba]-> {19,22}
s -[abaaba]-> {19,22}
{8,9,11,14,23} -[ac]-> {13}
{9,11,14,23} -[ac]-> {13}
{9,11,12,14,23} -[ac]-> {13}
s -[(abaaaa*ca+((abaac+abac)a))c]-> {13}



{12} {7,10} {8,9,11,14,15,23} {8,9,11,14,23} {19,22} {13} {9,11,14,23} {9,11,12,14,23} {10} {20,23} {15} {13,15} s a 

{12} -[c]-> {13}
{7,10} -[b]-> {9,11,14,23}
{7,10} -[c]-> {8,9,11,14,23}
{8,9,11,14,15,23} -[a]-> {9,11,12,14,23}
{8,9,11,14,15,23} -[b]-> {10}
{8,9,11,14,15,23} -[c]-> {8,9,11,14,15,23}
{8,9,11,14,23} -[a]-> {12}
{8,9,11,14,23} -[b]-> {10}
{8,9,11,14,23} -[c]-> {8,9,11,14,15,23}
{19,22} -[a]-> {20,23}
{13} -[a]-> {9,11,14,23}
{9,11,14,23} -[a]-> {12}
{9,11,14,23} -[b]-> {10}
{9,11,14,23} -[c]-> {15}
{9,11,12,14,23} -[a]-> {12}
{9,11,12,14,23} -[b]-> {10}
{9,11,12,14,23} -[c]-> {13,15}
{10} -[b]-> {9,11,14,23}
{15} -[a]-> {9,11,14,23}
{13,15} -[a]-> {9,11,14,23}
{8,9,11,14,15,23} -[~]-> a
{8,9,11,14,23} -[~]-> a
{9,11,14,23} -[~]-> a
{9,11,12,14,23} -[~]-> a
{20,23} -[~]-> a
s -[abcbc]-> {8,9,11,14,23}
s -[abaaaa*ca+((abaac+abac)a)]-> {12}
s -[abaaaa*cb+((abaac+abac)b)]-> {7,10}
s -[abaaaa*cc+((abaac+abac)c)]-> {8,9,11,14,15,23}
s -[abaaaa*c+((abaac+abac)+(abaa+(ab+(c+a))))]-> a
{20,23} -[ba]-> {19,22}
s -[abaaba]-> {19,22}



{21} {12} {7,10} {8,9,11,14,15,23} {8,9,11,14,23} {19,22} {13} {9,11,14,23} {9,11,12,14,23} {10} {20,23} {15} {13,15} s a 

{21} -[a]-> {19,22}
{12} -[c]-> {13}
{7,10} -[b]-> {9,11,14,23}
{7,10} -[c]-> {8,9,11,14,23}
{8,9,11,14,15,23} -[a]-> {9,11,12,14,23}
{8,9,11,14,15,23} -[b]-> {10}
{8,9,11,14,15,23} -[c]-> {8,9,11,14,15,23}
{8,9,11,14,23} -[a]-> {12}
{8,9,11,14,23} -[b]-> {10}
{8,9,11,14,23} -[c]-> {8,9,11,14,15,23}
{19,22} -[a]-> {20,23}
{13} -[a]-> {9,11,14,23}
{9,11,14,23} -[a]-> {12}
{9,11,14,23} -[b]-> {10}
{9,11,14,23} -[c]-> {15}
{9,11,12,14,23} -[a]-> {12}
{9,11,12,14,23} -[b]-> {10}
{9,11,12,14,23} -[c]-> {13,15}
{10} -[b]-> {9,11,14,23}
{20,23} -[b]-> {21}
{15} -[a]-> {9,11,14,23}
{13,15} -[a]-> {9,11,14,23}
{8,9,11,14,15,23} -[~]-> a
{8,9,11,14,23} -[~]-> a
{9,11,14,23} -[~]-> a
{9,11,12,14,23} -[~]-> a
{20,23} -[~]-> a
s -[abaab]-> {21}
s -[abcbc]-> {8,9,11,14,23}
s -[abaaaa*ca+((abaac+abac)a)]-> {12}
s -[abaaaa*cb+((abaac+abac)b)]-> {7,10}
s -[abaaaa*cc+((abaac+abac)c)]-> {8,9,11,14,15,23}
s -[abaaaa*c+((abaac+abac)+(abaa+(ab+(c+a))))]-> a



{3,4,5,7} {21} {12} {7,10} {8,9,11,14,15,23} {8,9,11,14,23} {19,22} {13} {9,11,14,23} {9,11,12,14,23} {10} {20,23} {15} {13,15} s a 

{3,4,5,7} -[a]-> {3,4,5,7}
{21} -[a]-> {19,22}
{12} -[c]-> {13}
{7,10} -[b]-> {9,11,14,23}
{7,10} -[c]-> {8,9,11,14,23}
{8,9,11,14,15,23} -[a]-> {9,11,12,14,23}
{8,9,11,14,15,23} -[b]-> {10}
{8,9,11,14,15,23} -[c]-> {8,9,11,14,15,23}
{8,9,11,14,23} -[a]-> {12}
{8,9,11,14,23} -[b]-> {10}
{8,9,11,14,23} -[c]-> {8,9,11,14,15,23}
{19,22} -[a]-> {20,23}
{13} -[a]-> {9,11,14,23}
{9,11,14,23} -[a]-> {12}
{9,11,14,23} -[b]-> {10}
{9,11,14,23} -[c]-> {15}
{9,11,12,14,23} -[a]-> {12}
{9,11,12,14,23} -[b]-> {10}
{9,11,12,14,23} -[c]-> {13,15}
{10} -[b]-> {9,11,14,23}
{20,23} -[b]-> {21}
{15} -[a]-> {9,11,14,23}
{13,15} -[a]-> {9,11,14,23}
{8,9,11,14,15,23} -[~]-> a
{8,9,11,14,23} -[~]-> a
{9,11,14,23} -[~]-> a
{9,11,12,14,23} -[~]-> a
{20,23} -[~]-> a
s -[abaaa]-> {3,4,5,7}
s -[abaab]-> {21}
{3,4,5,7} -[ca]-> {12}
{3,4,5,7} -[cb]-> {7,10}
{3,4,5,7} -[cc]-> {8,9,11,14,15,23}
{3,4,5,7} -[c]-> a
s -[(abaac+abac)a]-> {12}
s -[(abaac+abac)b]-> {7,10}
s -[(abaac+abac)c]-> {8,9,11,14,15,23}
s -[(abaac+abac)+(abaa+(ab+(c+a)))]-> a
s -[abcbc]-> {8,9,11,14,23}



{7} {3,4,5,7} {21} {12} {7,10} {8,9,11,14,15,23} {8,9,11,14,23} {19,22} {13} {9,11,14,23} {9,11,12,14,23} {10} {20,23} {15} {13,15} s a 

{7} -[c]-> {8,9,11,14,23}
{3,4,5,7} -[a]-> {3,4,5,7}
{21} -[a]-> {19,22}
{12} -[c]-> {13}
{7,10} -[b]-> {9,11,14,23}
{7,10} -[c]-> {8,9,11,14,23}
{8,9,11,14,15,23} -[a]-> {9,11,12,14,23}
{8,9,11,14,15,23} -[b]-> {10}
{8,9,11,14,15,23} -[c]-> {8,9,11,14,15,23}
{8,9,11,14,23} -[a]-> {12}
{8,9,11,14,23} -[b]-> {10}
{8,9,11,14,23} -[c]-> {8,9,11,14,15,23}
{19,22} -[a]-> {20,23}
{13} -[a]-> {9,11,14,23}
{9,11,14,23} -[a]-> {12}
{9,11,14,23} -[b]-> {10}
{9,11,14,23} -[c]-> {15}
{9,11,12,14,23} -[a]-> {12}
{9,11,12,14,23} -[b]-> {10}
{9,11,12,14,23} -[c]-> {13,15}
{10} -[b]-> {9,11,14,23}
{20,23} -[b]-> {21}
{15} -[a]-> {9,11,14,23}
{13,15} -[a]-> {9,11,14,23}
{8,9,11,14,15,23} -[~]-> a
{8,9,11,14,23} -[~]-> a
{9,11,14,23} -[~]-> a
{9,11,12,14,23} -[~]-> a
{20,23} -[~]-> a
s -[abcb]-> {7}
s -[abaaa]-> {3,4,5,7}
s -[abaab]-> {21}
{3,4,5,7} -[ca]-> {12}
{3,4,5,7} -[cb]-> {7,10}
{3,4,5,7} -[cc]-> {8,9,11,14,15,23}
{3,4,5,7} -[c]-> a
s -[(abaac+abac)a]-> {12}
s -[(abaac+abac)b]-> {7,10}
s -[(abaac+abac)c]-> {8,9,11,14,15,23}
s -[(abaac+abac)+(abaa+(ab+(c+a)))]-> a



{6,8,9,11,14,23} {7} {3,4,5,7} {21} {12} {7,10} {8,9,11,14,15,23} {8,9,11,14,23} {19,22} {13} {9,11,14,23} {9,11,12,14,23} {10} {20,23} {15} {13,15} s a 

{6,8,9,11,14,23} -[a]-> {12}
{6,8,9,11,14,23} -[b]-> {7,10}
{6,8,9,11,14,23} -[c]-> {8,9,11,14,15,23}
{7} -[c]-> {8,9,11,14,23}
{3,4,5,7} -[a]-> {3,4,5,7}
{3,4,5,7} -[c]-> {6,8,9,11,14,23}
{21} -[a]-> {19,22}
{12} -[c]-> {13}
{7,10} -[b]-> {9,11,14,23}
{7,10} -[c]-> {8,9,11,14,23}
{8,9,11,14,15,23} -[a]-> {9,11,12,14,23}
{8,9,11,14,15,23} -[b]-> {10}
{8,9,11,14,15,23} -[c]-> {8,9,11,14,15,23}
{8,9,11,14,23} -[a]-> {12}
{8,9,11,14,23} -[b]-> {10}
{8,9,11,14,23} -[c]-> {8,9,11,14,15,23}
{19,22} -[a]-> {20,23}
{13} -[a]-> {9,11,14,23}
{9,11,14,23} -[a]-> {12}
{9,11,14,23} -[b]-> {10}
{9,11,14,23} -[c]-> {15}
{9,11,12,14,23} -[a]-> {12}
{9,11,12,14,23} -[b]-> {10}
{9,11,12,14,23} -[c]-> {13,15}
{10} -[b]-> {9,11,14,23}
{20,23} -[b]-> {21}
{15} -[a]-> {9,11,14,23}
{13,15} -[a]-> {9,11,14,23}
{6,8,9,11,14,23} -[~]-> a
{8,9,11,14,15,23} -[~]-> a
{8,9,11,14,23} -[~]-> a
{9,11,14,23} -[~]-> a
{9,11,12,14,23} -[~]-> a
{20,23} -[~]-> a
s -[abcb]-> {7}
s -[abaac+abac]-> {6,8,9,11,14,23}
s -[abaaa]-> {3,4,5,7}
s -[abaab]-> {21}
s -[abaa+(ab+(c+a))]-> a



{3,4,5,7,20,23} {6,8,9,11,14,23} {7} {3,4,5,7} {21} {12} {7,10} {8,9,11,14,15,23} {8,9,11,14,23} {19,22} {13} {9,11,14,23} {9,11,12,14,23} {10} {20,23} {15} {13,15} s a 

{3,4,5,7,20,23} -[a]-> {3,4,5,7}
{3,4,5,7,20,23} -[b]-> {21}
{3,4,5,7,20,23} -[c]-> {6,8,9,11,14,23}
{6,8,9,11,14,23} -[a]-> {12}
{6,8,9,11,14,23} -[b]-> {7,10}
{6,8,9,11,14,23} -[c]-> {8,9,11,14,15,23}
{7} -[c]-> {8,9,11,14,23}
{3,4,5,7} -[a]-> {3,4,5,7}
{3,4,5,7} -[c]-> {6,8,9,11,14,23}
{21} -[a]-> {19,22}
{12} -[c]-> {13}
{7,10} -[b]-> {9,11,14,23}
{7,10} -[c]-> {8,9,11,14,23}
{8,9,11,14,15,23} -[a]-> {9,11,12,14,23}
{8,9,11,14,15,23} -[b]-> {10}
{8,9,11,14,15,23} -[c]-> {8,9,11,14,15,23}
{8,9,11,14,23} -[a]-> {12}
{8,9,11,14,23} -[b]-> {10}
{8,9,11,14,23} -[c]-> {8,9,11,14,15,23}
{19,22} -[a]-> {20,23}
{13} -[a]-> {9,11,14,23}
{9,11,14,23} -[a]-> {12}
{9,11,14,23} -[b]-> {10}
{9,11,14,23} -[c]-> {15}
{9,11,12,14,23} -[a]-> {12}
{9,11,12,14,23} -[b]-> {10}
{9,11,12,14,23} -[c]-> {13,15}
{10} -[b]-> {9,11,14,23}
{20,23} -[b]-> {21}
{15} -[a]-> {9,11,14,23}
{13,15} -[a]-> {9,11,14,23}
{3,4,5,7,20,23} -[~]-> a
{6,8,9,11,14,23} -[~]-> a
{8,9,11,14,15,23} -[~]-> a
{8,9,11,14,23} -[~]-> a
{9,11,14,23} -[~]-> a
{9,11,12,14,23} -[~]-> a
{20,23} -[~]-> a
s -[ab+(c+a)]-> a
s -[abaa]-> {3,4,5,7,20,23}
s -[abac]-> {6,8,9,11,14,23}
s -[abcb]-> {7}



{6} {3,4,5,7,20,23} {6,8,9,11,14,23} {7} {3,4,5,7} {21} {12} {7,10} {8,9,11,14,15,23} {8,9,11,14,23} {19,22} {13} {9,11,14,23} {9,11,12,14,23} {10} {20,23} {15} {13,15} s a 

{6} -[b]-> {7}
{3,4,5,7,20,23} -[a]-> {3,4,5,7}
{3,4,5,7,20,23} -[b]-> {21}
{3,4,5,7,20,23} -[c]-> {6,8,9,11,14,23}
{6,8,9,11,14,23} -[a]-> {12}
{6,8,9,11,14,23} -[b]-> {7,10}
{6,8,9,11,14,23} -[c]-> {8,9,11,14,15,23}
{7} -[c]-> {8,9,11,14,23}
{3,4,5,7} -[a]-> {3,4,5,7}
{3,4,5,7} -[c]-> {6,8,9,11,14,23}
{21} -[a]-> {19,22}
{12} -[c]-> {13}
{7,10} -[b]-> {9,11,14,23}
{7,10} -[c]-> {8,9,11,14,23}
{8,9,11,14,15,23} -[a]-> {9,11,12,14,23}
{8,9,11,14,15,23} -[b]-> {10}
{8,9,11,14,15,23} -[c]-> {8,9,11,14,15,23}
{8,9,11,14,23} -[a]-> {12}
{8,9,11,14,23} -[b]-> {10}
{8,9,11,14,23} -[c]-> {8,9,11,14,15,23}
{19,22} -[a]-> {20,23}
{13} -[a]-> {9,11,14,23}
{9,11,14,23} -[a]-> {12}
{9,11,14,23} -[b]-> {10}
{9,11,14,23} -[c]-> {15}
{9,11,12,14,23} -[a]-> {12}
{9,11,12,14,23} -[b]-> {10}
{9,11,12,14,23} -[c]-> {13,15}
{10} -[b]-> {9,11,14,23}
{20,23} -[b]-> {21}
{15} -[a]-> {9,11,14,23}
{13,15} -[a]-> {9,11,14,23}
{3,4,5,7,20,23} -[~]-> a
{6,8,9,11,14,23} -[~]-> a
{8,9,11,14,15,23} -[~]-> a
{8,9,11,14,23} -[~]-> a
{9,11,14,23} -[~]-> a
{9,11,12,14,23} -[~]-> a
{20,23} -[~]-> a
s -[abc]-> {6}
s -[ab+(c+a)]-> a
s -[abaa]-> {3,4,5,7,20,23}
s -[abac]-> {6,8,9,11,14,23}



{3,4,5,7,19,22} {6} {3,4,5,7,20,23} {6,8,9,11,14,23} {7} {3,4,5,7} {21} {12} {7,10} {8,9,11,14,15,23} {8,9,11,14,23} {19,22} {13} {9,11,14,23} {9,11,12,14,23} {10} {20,23} {15} {13,15} s a 

{3,4,5,7,19,22} -[a]-> {3,4,5,7,20,23}
{3,4,5,7,19,22} -[c]-> {6,8,9,11,14,23}
{6} -[b]-> {7}
{3,4,5,7,20,23} -[a]-> {3,4,5,7}
{3,4,5,7,20,23} -[b]-> {21}
{3,4,5,7,20,23} -[c]-> {6,8,9,11,14,23}
{6,8,9,11,14,23} -[a]-> {12}
{6,8,9,11,14,23} -[b]-> {7,10}
{6,8,9,11,14,23} -[c]-> {8,9,11,14,15,23}
{7} -[c]-> {8,9,11,14,23}
{3,4,5,7} -[a]-> {3,4,5,7}
{3,4,5,7} -[c]-> {6,8,9,11,14,23}
{21} -[a]-> {19,22}
{12} -[c]-> {13}
{7,10} -[b]-> {9,11,14,23}
{7,10} -[c]-> {8,9,11,14,23}
{8,9,11,14,15,23} -[a]-> {9,11,12,14,23}
{8,9,11,14,15,23} -[b]-> {10}
{8,9,11,14,15,23} -[c]-> {8,9,11,14,15,23}
{8,9,11,14,23} -[a]-> {12}
{8,9,11,14,23} -[b]-> {10}
{8,9,11,14,23} -[c]-> {8,9,11,14,15,23}
{19,22} -[a]-> {20,23}
{13} -[a]-> {9,11,14,23}
{9,11,14,23} -[a]-> {12}
{9,11,14,23} -[b]-> {10}
{9,11,14,23} -[c]-> {15}
{9,11,12,14,23} -[a]-> {12}
{9,11,12,14,23} -[b]-> {10}
{9,11,12,14,23} -[c]-> {13,15}
{10} -[b]-> {9,11,14,23}
{20,23} -[b]-> {21}
{15} -[a]-> {9,11,14,23}
{13,15} -[a]-> {9,11,14,23}
{3,4,5,7,20,23} -[~]-> a
{6,8,9,11,14,23} -[~]-> a
{8,9,11,14,15,23} -[~]-> a
{8,9,11,14,23} -[~]-> a
{9,11,14,23} -[~]-> a
{9,11,12,14,23} -[~]-> a
{20,23} -[~]-> a
s -[aba]-> {3,4,5,7,19,22}
s -[abc]-> {6}
s -[ab+(c+a)]-> a



{3,4,5,21,23} {3,4,5,7,19,22} {6} {3,4,5,7,20,23} {6,8,9,11,14,23} {7} {3,4,5,7} {21} {12} {7,10} {8,9,11,14,15,23} {8,9,11,14,23} {19,22} {13} {9,11,14,23} {9,11,12,14,23} {10} {20,23} {15} {13,15} s a 

{3,4,5,21,23} -[a]-> {3,4,5,7,19,22}
{3,4,5,21,23} -[c]-> {6}
{3,4,5,7,19,22} -[a]-> {3,4,5,7,20,23}
{3,4,5,7,19,22} -[c]-> {6,8,9,11,14,23}
{6} -[b]-> {7}
{3,4,5,7,20,23} -[a]-> {3,4,5,7}
{3,4,5,7,20,23} -[b]-> {21}
{3,4,5,7,20,23} -[c]-> {6,8,9,11,14,23}
{6,8,9,11,14,23} -[a]-> {12}
{6,8,9,11,14,23} -[b]-> {7,10}
{6,8,9,11,14,23} -[c]-> {8,9,11,14,15,23}
{7} -[c]-> {8,9,11,14,23}
{3,4,5,7} -[a]-> {3,4,5,7}
{3,4,5,7} -[c]-> {6,8,9,11,14,23}
{21} -[a]-> {19,22}
{12} -[c]-> {13}
{7,10} -[b]-> {9,11,14,23}
{7,10} -[c]-> {8,9,11,14,23}
{8,9,11,14,15,23} -[a]-> {9,11,12,14,23}
{8,9,11,14,15,23} -[b]-> {10}
{8,9,11,14,15,23} -[c]-> {8,9,11,14,15,23}
{8,9,11,14,23} -[a]-> {12}
{8,9,11,14,23} -[b]-> {10}
{8,9,11,14,23} -[c]-> {8,9,11,14,15,23}
{19,22} -[a]-> {20,23}
{13} -[a]-> {9,11,14,23}
{9,11,14,23} -[a]-> {12}
{9,11,14,23} -[b]-> {10}
{9,11,14,23} -[c]-> {15}
{9,11,12,14,23} -[a]-> {12}
{9,11,12,14,23} -[b]-> {10}
{9,11,12,14,23} -[c]-> {13,15}
{10} -[b]-> {9,11,14,23}
{20,23} -[b]-> {21}
{15} -[a]-> {9,11,14,23}
{13,15} -[a]-> {9,11,14,23}
{3,4,5,21,23} -[~]-> a
{3,4,5,7,20,23} -[~]-> a
{6,8,9,11,14,23} -[~]-> a
{8,9,11,14,15,23} -[~]-> a
{8,9,11,14,23} -[~]-> a
{9,11,14,23} -[~]-> a
{9,11,12,14,23} -[~]-> a
{20,23} -[~]-> a
s -[ab]-> {3,4,5,21,23}
s -[c+a]-> a



{23} {3,4,5,21,23} {3,4,5,7,19,22} {6} {3,4,5,7,20,23} {6,8,9,11,14,23} {7} {3,4,5,7} {21} {12} {7,10} {8,9,11,14,15,23} {8,9,11,14,23} {19,22} {13} {9,11,14,23} {9,11,12,14,23} {10} {20,23} {15} {13,15} s a 

{3,4,5,21,23} -[a]-> {3,4,5,7,19,22}
{3,4,5,21,23} -[c]-> {6}
{3,4,5,7,19,22} -[a]-> {3,4,5,7,20,23}
{3,4,5,7,19,22} -[c]-> {6,8,9,11,14,23}
{6} -[b]-> {7}
{3,4,5,7,20,23} -[a]-> {3,4,5,7}
{3,4,5,7,20,23} -[b]-> {21}
{3,4,5,7,20,23} -[c]-> {6,8,9,11,14,23}
{6,8,9,11,14,23} -[a]-> {12}
{6,8,9,11,14,23} -[b]-> {7,10}
{6,8,9,11,14,23} -[c]-> {8,9,11,14,15,23}
{7} -[c]-> {8,9,11,14,23}
{3,4,5,7} -[a]-> {3,4,5,7}
{3,4,5,7} -[c]-> {6,8,9,11,14,23}
{21} -[a]-> {19,22}
{12} -[c]-> {13}
{7,10} -[b]-> {9,11,14,23}
{7,10} -[c]-> {8,9,11,14,23}
{8,9,11,14,15,23} -[a]-> {9,11,12,14,23}
{8,9,11,14,15,23} -[b]-> {10}
{8,9,11,14,15,23} -[c]-> {8,9,11,14,15,23}
{8,9,11,14,23} -[a]-> {12}
{8,9,11,14,23} -[b]-> {10}
{8,9,11,14,23} -[c]-> {8,9,11,14,15,23}
{19,22} -[a]-> {20,23}
{13} -[a]-> {9,11,14,23}
{9,11,14,23} -[a]-> {12}
{9,11,14,23} -[b]-> {10}
{9,11,14,23} -[c]-> {15}
{9,11,12,14,23} -[a]-> {12}
{9,11,12,14,23} -[b]-> {10}
{9,11,12,14,23} -[c]-> {13,15}
{10} -[b]-> {9,11,14,23}
{20,23} -[b]-> {21}
{15} -[a]-> {9,11,14,23}
{13,15} -[a]-> {9,11,14,23}
{23} -[~]-> a
{3,4,5,21,23} -[~]-> a
{3,4,5,7,20,23} -[~]-> a
{6,8,9,11,14,23} -[~]-> a
{8,9,11,14,15,23} -[~]-> a
{8,9,11,14,23} -[~]-> a
{9,11,14,23} -[~]-> a
{9,11,12,14,23} -[~]-> a
{20,23} -[~]-> a
s -[c]-> {23}
s -[ab]-> {3,4,5,21,23}
s -[a]-> a



{2,17,20,23} {23} {3,4,5,21,23} {3,4,5,7,19,22} {6} {3,4,5,7,20,23} {6,8,9,11,14,23} {7} {3,4,5,7} {21} {12} {7,10} {8,9,11,14,15,23} {8,9,11,14,23} {19,22} {13} {9,11,14,23} {9,11,12,14,23} {10} {20,23} {15} {13,15} s a 

{2,17,20,23} -[b]-> {3,4,5,21,23}
{3,4,5,21,23} -[a]-> {3,4,5,7,19,22}
{3,4,5,21,23} -[c]-> {6}
{3,4,5,7,19,22} -[a]-> {3,4,5,7,20,23}
{3,4,5,7,19,22} -[c]-> {6,8,9,11,14,23}
{6} -[b]-> {7}
{3,4,5,7,20,23} -[a]-> {3,4,5,7}
{3,4,5,7,20,23} -[b]-> {21}
{3,4,5,7,20,23} -[c]-> {6,8,9,11,14,23}
{6,8,9,11,14,23} -[a]-> {12}
{6,8,9,11,14,23} -[b]-> {7,10}
{6,8,9,11,14,23} -[c]-> {8,9,11,14,15,23}
{7} -[c]-> {8,9,11,14,23}
{3,4,5,7} -[a]-> {3,4,5,7}
{3,4,5,7} -[c]-> {6,8,9,11,14,23}
{21} -[a]-> {19,22}
{12} -[c]-> {13}
{7,10} -[b]-> {9,11,14,23}
{7,10} -[c]-> {8,9,11,14,23}
{8,9,11,14,15,23} -[a]-> {9,11,12,14,23}
{8,9,11,14,15,23} -[b]-> {10}
{8,9,11,14,15,23} -[c]-> {8,9,11,14,15,23}
{8,9,11,14,23} -[a]-> {12}
{8,9,11,14,23} -[b]-> {10}
{8,9,11,14,23} -[c]-> {8,9,11,14,15,23}
{19,22} -[a]-> {20,23}
{13} -[a]-> {9,11,14,23}
{9,11,14,23} -[a]-> {12}
{9,11,14,23} -[b]-> {10}
{9,11,14,23} -[c]-> {15}
{9,11,12,14,23} -[a]-> {12}
{9,11,12,14,23} -[b]-> {10}
{9,11,12,14,23} -[c]-> {13,15}
{10} -[b]-> {9,11,14,23}
{20,23} -[b]-> {21}
{15} -[a]-> {9,11,14,23}
{13,15} -[a]-> {9,11,14,23}
{2,17,20,23} -[~]-> a
{23} -[~]-> a
{3,4,5,21,23} -[~]-> a
{3,4,5,7,20,23} -[~]-> a
{6,8,9,11,14,23} -[~]-> a
{8,9,11,14,15,23} -[~]-> a
{8,9,11,14,23} -[~]-> a
{9,11,14,23} -[~]-> a
{9,11,12,14,23} -[~]-> a
{20,23} -[~]-> a
s -[a]-> {2,17,20,23}
s -[c]-> {23}



s a 

s -[((((abaaaa*cb+((abaac+abac)b))c+abcbc)cc*a+((abaaaa*cc+((abaac+abac)c))c*a))c)((a(aca)*b(b(aca)*b)*b(aca)*c+a(aca)*c)(a(aca)*b(b(aca)*b)*b(aca)*c+a(aca)*c)*(a(aca)*b(b(aca)*b)*b(aca)*+a(aca)*)+(a(aca)*b(b(aca)*b)*b(aca)*+a(aca)*))+((((((abaaaa*cb+((abaac+abac)b))c+abcbc)cc*a+((abaaaa*cc+((abaac+abac)c))c*a))(aca(aca)*b+b)+(((((abaaaa*cb+((abaac+abac)b))c+abcbc)ac+((abaaaa*ca+((abaac+abac)a))c))a+((abaaaa*cb+((abaac+abac)b))b))(aca)*b+(((abaaaa*cb+((abaac+abac)b))c+abcbc)(cc*b+b)+((abaaaa*cc+((abaac+abac)c))c*b))))(b(aca)*b)*b(aca)*c+((((abaaaa*cb+((abaac+abac)b))c+abcbc)cc*a+((abaaaa*cc+((abaac+abac)c))c*a))aca(aca)*c+(((((abaaaa*cb+((abaac+abac)b))c+abcbc)ac+((abaaaa*ca+((abaac+abac)a))c))a+((abaaaa*cb+((abaac+abac)b))b))(aca)*c)))(a(aca)*b(b(aca)*b)*b(aca)*c+a(aca)*c)*(a(aca)*b(b(aca)*b)*b(aca)*+a(aca)*)+(abaabaa(baa)*+(((((abaaaa*cb+((abaac+abac)b))c+abcbc)cc*a+((abaaaa*cc+((abaac+abac)c))c*a))(aca(aca)*b+b)+(((((abaaaa*cb+((abaac+abac)b))c+abcbc)ac+((abaaaa*ca+((abaac+abac)a))c))a+((abaaaa*cb+((abaac+abac)b))b))(aca)*b+(((abaaaa*cb+((abaac+abac)b))c+abcbc)(cc*b+b)+((abaaaa*cc+((abaac+abac)c))c*b))))(b(aca)*b)*b(aca)*+((((abaaaa*cb+((abaac+abac)b))c+abcbc)cc*a+((abaaaa*cc+((abaac+abac)c))c*a))aca(aca)*+(((((abaaaa*cb+((abaac+abac)b))c+abcbc)ac+((abaaaa*ca+((abaac+abac)a))c))a+((abaaaa*cb+((abaac+abac)b))b))(aca)*+(((abaaaa*cb+((abaac+abac)b))c+abcbc)cc*+((abaaaa*cc+((abaac+abac)c))c*+(abaaaa*c+((abaac+abac)+(abaa+(ab+(c+a))))))))))))]-> a



{13,15} s a 

s -[(((abaaaa*cb+((abaac+abac)b))c+abcbc)cc*a+((abaaaa*cc+((abaac+abac)c))c*a))c]-> {13,15}
{13,15} -[(a(aca)*b(b(aca)*b)*b(aca)*c+a(aca)*c)(a(aca)*b(b(aca)*b)*b(aca)*c+a(aca)*c)*(a(aca)*b(b(aca)*b)*b(aca)*+a(aca)*)+(a(aca)*b(b(aca)*b)*b(aca)*+a(aca)*)]-> a
s -[(((((abaaaa*cb+((abaac+abac)b))c+abcbc)cc*a+((abaaaa*cc+((abaac+abac)c))c*a))(aca(aca)*b+b)+(((((abaaaa*cb+((abaac+abac)b))c+abcbc)ac+((abaaaa*ca+((abaac+abac)a))c))a+((abaaaa*cb+((abaac+abac)b))b))(aca)*b+(((abaaaa*cb+((abaac+abac)b))c+abcbc)(cc*b+b)+((abaaaa*cc+((abaac+abac)c))c*b))))(b(aca)*b)*b(aca)*c+((((abaaaa*cb+((abaac+abac)b))c+abcbc)cc*a+((abaaaa*cc+((abaac+abac)c))c*a))aca(aca)*c+(((((abaaaa*cb+((abaac+abac)b))c+abcbc)ac+((abaaaa*ca+((abaac+abac)a))c))a+((abaaaa*cb+((abaac+abac)b))b))(aca)*c)))(a(aca)*b(b(aca)*b)*b(aca)*c+a(aca)*c)*(a(aca)*b(b(aca)*b)*b(aca)*+a(aca)*)+(abaabaa(baa)*+(((((abaaaa*cb+((abaac+abac)b))c+abcbc)cc*a+((abaaaa*cc+((abaac+abac)c))c*a))(aca(aca)*b+b)+(((((abaaaa*cb+((abaac+abac)b))c+abcbc)ac+((abaaaa*ca+((abaac+abac)a))c))a+((abaaaa*cb+((abaac+abac)b))b))(aca)*b+(((abaaaa*cb+((abaac+abac)b))c+abcbc)(cc*b+b)+((abaaaa*cc+((abaac+abac)c))c*b))))(b(aca)*b)*b(aca)*+((((abaaaa*cb+((abaac+abac)b))c+abcbc)cc*a+((abaaaa*cc+((abaac+abac)c))c*a))aca(aca)*+(((((abaaaa*cb+((abaac+abac)b))c+abcbc)ac+((abaaaa*ca+((abaac+abac)a))c))a+((abaaaa*cb+((abaac+abac)b))b))(aca)*+(((abaaaa*cb+((abaac+abac)b))c+abcbc)cc*+((abaaaa*cc+((abaac+abac)c))c*+(abaaaa*c+((abaac+abac)+(abaa+(ab+(c+a)))))))))))]-> a



{15} {13,15} s a 

s -[(((abaaaa*cb+((abaac+abac)b))c+abcbc)cc*a+((abaaaa*cc+((abaac+abac)c))c*a))c]-> {13,15}
{15} -[a(aca)*b(b(aca)*b)*b(aca)*c+a(aca)*c]-> {15}
{15} -[a(aca)*b(b(aca)*b)*b(aca)*+a(aca)*]-> a
{13,15} -[a(aca)*b(b(aca)*b)*b(aca)*c+a(aca)*c]-> {15}
{13,15} -[a(aca)*b(b(aca)*b)*b(aca)*+a(aca)*]-> a
s -[((((abaaaa*cb+((abaac+abac)b))c+abcbc)cc*a+((abaaaa*cc+((abaac+abac)c))c*a))(aca(aca)*b+b)+(((((abaaaa*cb+((abaac+abac)b))c+abcbc)ac+((abaaaa*ca+((abaac+abac)a))c))a+((abaaaa*cb+((abaac+abac)b))b))(aca)*b+(((abaaaa*cb+((abaac+abac)b))c+abcbc)(cc*b+b)+((abaaaa*cc+((abaac+abac)c))c*b))))(b(aca)*b)*b(aca)*c+((((abaaaa*cb+((abaac+abac)b))c+abcbc)cc*a+((abaaaa*cc+((abaac+abac)c))c*a))aca(aca)*c+(((((abaaaa*cb+((abaac+abac)b))c+abcbc)ac+((abaaaa*ca+((abaac+abac)a))c))a+((abaaaa*cb+((abaac+abac)b))b))(aca)*c))]-> {15}
s -[abaabaa(baa)*+(((((abaaaa*cb+((abaac+abac)b))c+abcbc)cc*a+((abaaaa*cc+((abaac+abac)c))c*a))(aca(aca)*b+b)+(((((abaaaa*cb+((abaac+abac)b))c+abcbc)ac+((abaaaa*ca+((abaac+abac)a))c))a+((abaaaa*cb+((abaac+abac)b))b))(aca)*b+(((abaaaa*cb+((abaac+abac)b))c+abcbc)(cc*b+b)+((abaaaa*cc+((abaac+abac)c))c*b))))(b(aca)*b)*b(aca)*+((((abaaaa*cb+((abaac+abac)b))c+abcbc)cc*a+((abaaaa*cc+((abaac+abac)c))c*a))aca(aca)*+(((((abaaaa*cb+((abaac+abac)b))c+abcbc)ac+((abaaaa*ca+((abaac+abac)a))c))a+((abaaaa*cb+((abaac+abac)b))b))(aca)*+(((abaaaa*cb+((abaac+abac)b))c+abcbc)cc*+((abaaaa*cc+((abaac+abac)c))c*+(abaaaa*c+((abaac+abac)+(abaa+(ab+(c+a))))))))))]-> a



{20,23} {15} {13,15} s a 

{20,23} -[~]-> a
{20,23} -[baa]-> {20,23}
s -[abaabaa]-> {20,23}
s -[(((abaaaa*cb+((abaac+abac)b))c+abcbc)cc*a+((abaaaa*cc+((abaac+abac)c))c*a))c]-> {13,15}
{15} -[a(aca)*b(b(aca)*b)*b(aca)*c+a(aca)*c]-> {15}
{15} -[a(aca)*b(b(aca)*b)*b(aca)*+a(aca)*]-> a
{13,15} -[a(aca)*b(b(aca)*b)*b(aca)*c+a(aca)*c]-> {15}
{13,15} -[a(aca)*b(b(aca)*b)*b(aca)*+a(aca)*]-> a
s -[((((abaaaa*cb+((abaac+abac)b))c+abcbc)cc*a+((abaaaa*cc+((abaac+abac)c))c*a))(aca(aca)*b+b)+(((((abaaaa*cb+((abaac+abac)b))c+abcbc)ac+((abaaaa*ca+((abaac+abac)a))c))a+((abaaaa*cb+((abaac+abac)b))b))(aca)*b+(((abaaaa*cb+((abaac+abac)b))c+abcbc)(cc*b+b)+((abaaaa*cc+((abaac+abac)c))c*b))))(b(aca)*b)*b(aca)*c+((((abaaaa*cb+((abaac+abac)b))c+abcbc)cc*a+((abaaaa*cc+((abaac+abac)c))c*a))aca(aca)*c+(((((abaaaa*cb+((abaac+abac)b))c+abcbc)ac+((abaaaa*ca+((abaac+abac)a))c))a+((abaaaa*cb+((abaac+abac)b))b))(aca)*c))]-> {15}
s -[((((abaaaa*cb+((abaac+abac)b))c+abcbc)cc*a+((abaaaa*cc+((abaac+abac)c))c*a))(aca(aca)*b+b)+(((((abaaaa*cb+((abaac+abac)b))c+abcbc)ac+((abaaaa*ca+((abaac+abac)a))c))a+((abaaaa*cb+((abaac+abac)b))b))(aca)*b+(((abaaaa*cb+((abaac+abac)b))c+abcbc)(cc*b+b)+((abaaaa*cc+((abaac+abac)c))c*b))))(b(aca)*b)*b(aca)*+((((abaaaa*cb+((abaac+abac)b))c+abcbc)cc*a+((abaaaa*cc+((abaac+abac)c))c*a))aca(aca)*+(((((abaaaa*cb+((abaac+abac)b))c+abcbc)ac+((abaaaa*ca+((abaac+abac)a))c))a+((abaaaa*cb+((abaac+abac)b))b))(aca)*+(((abaaaa*cb+((abaac+abac)b))c+abcbc)cc*+((abaaaa*cc+((abaac+abac)c))c*+(abaaaa*c+((abaac+abac)+(abaa+(ab+(c+a)))))))))]-> a



{10} {20,23} {15} {13,15} s a 

{20,23} -[~]-> a
{20,23} -[baa]-> {20,23}
s -[abaabaa]-> {20,23}
{10} -[b(aca)*b]-> {10}
{10} -[b(aca)*c]-> {15}
{10} -[b(aca)*]-> a
{15} -[a(aca)*b]-> {10}
{15} -[a(aca)*c]-> {15}
{15} -[a(aca)*]-> a
{13,15} -[a(aca)*b]-> {10}
{13,15} -[a(aca)*c]-> {15}
{13,15} -[a(aca)*]-> a
s -[(((abaaaa*cb+((abaac+abac)b))c+abcbc)cc*a+((abaaaa*cc+((abaac+abac)c))c*a))(aca(aca)*b+b)+(((((abaaaa*cb+((abaac+abac)b))c+abcbc)ac+((abaaaa*ca+((abaac+abac)a))c))a+((abaaaa*cb+((abaac+abac)b))b))(aca)*b+(((abaaaa*cb+((abaac+abac)b))c+abcbc)(cc*b+b)+((abaaaa*cc+((abaac+abac)c))c*b)))]-> {10}
s -[(((abaaaa*cb+((abaac+abac)b))c+abcbc)cc*a+((abaaaa*cc+((abaac+abac)c))c*a))aca(aca)*c+(((((abaaaa*cb+((abaac+abac)b))c+abcbc)ac+((abaaaa*ca+((abaac+abac)a))c))a+((abaaaa*cb+((abaac+abac)b))b))(aca)*c)]-> {15}
s -[(((abaaaa*cb+((abaac+abac)b))c+abcbc)cc*a+((abaaaa*cc+((abaac+abac)c))c*a))c]-> {13,15}
s -[(((abaaaa*cb+((abaac+abac)b))c+abcbc)cc*a+((abaaaa*cc+((abaac+abac)c))c*a))aca(aca)*+(((((abaaaa*cb+((abaac+abac)b))c+abcbc)ac+((abaaaa*ca+((abaac+abac)a))c))a+((abaaaa*cb+((abaac+abac)b))b))(aca)*+(((abaaaa*cb+((abaac+abac)b))c+abcbc)cc*+((abaaaa*cc+((abaac+abac)c))c*+(abaaaa*c+((abaac+abac)+(abaa+(ab+(c+a))))))))]-> a



{9,11,12,14,23} {10} {20,23} {15} {13,15} s a 

{9,11,12,14,23} -[c]-> {13,15}
{20,23} -[~]-> a
s -[((abaaaa*cb+((abaac+abac)b))c+abcbc)cc*a+((abaaaa*cc+((abaac+abac)c))c*a)]-> {9,11,12,14,23}
{20,23} -[baa]-> {20,23}
s -[abaabaa]-> {20,23}
{9,11,12,14,23} -[aca(aca)*b+b]-> {10}
{9,11,12,14,23} -[aca(aca)*c]-> {15}
{9,11,12,14,23} -[aca(aca)*]-> a
{10} -[b(aca)*b]-> {10}
{10} -[b(aca)*c]-> {15}
{10} -[b(aca)*]-> a
{15} -[a(aca)*b]-> {10}
{15} -[a(aca)*c]-> {15}
{15} -[a(aca)*]-> a
{13,15} -[a(aca)*b]-> {10}
{13,15} -[a(aca)*c]-> {15}
{13,15} -[a(aca)*]-> a
s -[((((abaaaa*cb+((abaac+abac)b))c+abcbc)ac+((abaaaa*ca+((abaac+abac)a))c))a+((abaaaa*cb+((abaac+abac)b))b))(aca)*b+(((abaaaa*cb+((abaac+abac)b))c+abcbc)(cc*b+b)+((abaaaa*cc+((abaac+abac)c))c*b))]-> {10}
s -[((((abaaaa*cb+((abaac+abac)b))c+abcbc)ac+((abaaaa*ca+((abaac+abac)a))c))a+((abaaaa*cb+((abaac+abac)b))b))(aca)*c]-> {15}
s -[((((abaaaa*cb+((abaac+abac)b))c+abcbc)ac+((abaaaa*ca+((abaac+abac)a))c))a+((abaaaa*cb+((abaac+abac)b))b))(aca)*+(((abaaaa*cb+((abaac+abac)b))c+abcbc)cc*+((abaaaa*cc+((abaac+abac)c))c*+(abaaaa*c+((abaac+abac)+(abaa+(ab+(c+a)))))))]-> a



{9,11,14,23} {9,11,12,14,23} {10} {20,23} {15} {13,15} s a 

{9,11,14,23} -[b]-> {10}
{9,11,14,23} -[c]-> {15}
{9,11,12,14,23} -[b]-> {10}
{9,11,12,14,23} -[c]-> {13,15}
{10} -[b]-> {9,11,14,23}
{15} -[a]-> {9,11,14,23}
{13,15} -[a]-> {9,11,14,23}
{9,11,14,23} -[~]-> a
{9,11,12,14,23} -[~]-> a
{20,23} -[~]-> a
s -[((abaaaa*cb+((abaac+abac)b))c+abcbc)cc*a+((abaaaa*cc+((abaac+abac)c))c*a)]-> {9,11,12,14,23}
s -[((abaaaa*cb+((abaac+abac)b))c+abcbc)(cc*b+b)+((abaaaa*cc+((abaac+abac)c))c*b)]-> {10}
s -[((abaaaa*cb+((abaac+abac)b))c+abcbc)cc*+((abaaaa*cc+((abaac+abac)c))c*+(abaaaa*c+((abaac+abac)+(abaa+(ab+(c+a))))))]-> a
{20,23} -[baa]-> {20,23}
s -[abaabaa]-> {20,23}
{9,11,14,23} -[aca]-> {9,11,14,23}
{9,11,12,14,23} -[aca]-> {9,11,14,23}
s -[(((abaaaa*cb+((abaac+abac)b))c+abcbc)ac+((abaaaa*ca+((abaac+abac)a))c))a+((abaaaa*cb+((abaac+abac)b))b)]-> {9,11,14,23}



{13} {9,11,14,23} {9,11,12,14,23} {10} {20,23} {15} {13,15} s a 

{13} -[a]-> {9,11,14,23}
{9,11,14,23} -[b]-> {10}
{9,11,14,23} -[c]-> {15}
{9,11,12,14,23} -[b]-> {10}
{9,11,12,14,23} -[c]-> {13,15}
{10} -[b]-> {9,11,14,23}
{15} -[a]-> {9,11,14,23}
{13,15} -[a]-> {9,11,14,23}
{9,11,14,23} -[~]-> a
{9,11,12,14,23} -[~]-> a
{20,23} -[~]-> a
{9,11,14,23} -[ac]-> {13}
{9,11,12,14,23} -[ac]-> {13}
s -[(abaaaa*cb+((abaac+abac)b))b]-> {9,11,14,23}
s -[((abaaaa*cb+((abaac+abac)b))c+abcbc)ac+((abaaaa*ca+((abaac+abac)a))c)]-> {13}
s -[((abaaaa*cb+((abaac+abac)b))c+abcbc)cc*a+((abaaaa*cc+((abaac+abac)c))c*a)]-> {9,11,12,14,23}
s -[((abaaaa*cb+((abaac+abac)b))c+abcbc)(cc*b+b)+((abaaaa*cc+((abaac+abac)c))c*b)]-> {10}
s -[((abaaaa*cb+((abaac+abac)b))c+abcbc)cc*+((abaaaa*cc+((abaac+abac)c))c*+(abaaaa*c+((abaac+abac)+(abaa+(ab+(c+a))))))]-> a
{20,23} -[baa]-> {20,23}
s -[abaabaa]-> {20,23}



{19,22} {13} {9,11,14,23} {9,11,12,14,23} {10} {20,23} {15} {13,15} s a 

{19,22} -[a]-> {20,23}
{13} -[a]-> {9,11,14,23}
{9,11,14,23} -[b]-> {10}
{9,11,14,23} -[c]-> {15}
{9,11,12,14,23} -[b]-> {10}
{9,11,12,14,23} -[c]-> {13,15}
{10} -[b]-> {9,11,14,23}
{15} -[a]-> {9,11,14,23}
{13,15} -[a]-> {9,11,14,23}
{9,11,14,23} -[~]-> a
{9,11,12,14,23} -[~]-> a
{20,23} -[~]-> a
{20,23} -[ba]-> {19,22}
s -[abaaba]-> {19,22}
{9,11,14,23} -[ac]-> {13}
{9,11,12,14,23} -[ac]-> {13}
s -[(abaaaa*cb+((abaac+abac)b))b]-> {9,11,14,23}
s -[((abaaaa*cb+((abaac+abac)b))c+abcbc)ac+((abaaaa*ca+((abaac+abac)a))c)]-> {13}
s -[((abaaaa*cb+((abaac+abac)b))c+abcbc)cc*a+((abaaaa*cc+((abaac+abac)c))c*a)]-> {9,11,12,14,23}
s -[((abaaaa*cb+((abaac+abac)b))c+abcbc)(cc*b+b)+((abaaaa*cc+((abaac+abac)c))c*b)]-> {10}
s -[((abaaaa*cb+((abaac+abac)b))c+abcbc)cc*+((abaaaa*cc+((abaac+abac)c))c*+(abaaaa*c+((abaac+abac)+(abaa+(ab+(c+a))))))]-> a



{8,9,11,14,23} {19,22} {13} {9,11,14,23} {9,11,12,14,23} {10} {20,23} {15} {13,15} s a 

{19,22} -[a]-> {20,23}
{13} -[a]-> {9,11,14,23}
{9,11,14,23} -[b]-> {10}
{9,11,14,23} -[c]-> {15}
{9,11,12,14,23} -[b]-> {10}
{9,11,12,14,23} -[c]-> {13,15}
{10} -[b]-> {9,11,14,23}
{15} -[a]-> {9,11,14,23}
{13,15} -[a]-> {9,11,14,23}
{9,11,14,23} -[~]-> a
{9,11,12,14,23} -[~]-> a
{20,23} -[~]-> a
{20,23} -[ba]-> {19,22}
s -[abaaba]-> {19,22}
{8,9,11,14,23} -[ac]-> {13}
{9,11,14,23} -[ac]-> {13}
{9,11,12,14,23} -[ac]-> {13}
s -[(abaaaa*ca+((abaac+abac)a))c]-> {13}
s -[(abaaaa*cb+((abaac+abac)b))c+abcbc]-> {8,9,11,14,23}
s -[(abaaaa*cb+((abaac+abac)b))b]-> {9,11,14,23}
{8,9,11,14,23} -[cc*a]-> {9,11,12,14,23}
{8,9,11,14,23} -[cc*b+b]-> {10}
{8,9,11,14,23} -[cc*]-> a
s -[(abaaaa*cc+((abaac+abac)c))c*a]-> {9,11,12,14,23}
s -[(abaaaa*cc+((abaac+abac)c))c*b]-> {10}
s -[(abaaaa*cc+((abaac+abac)c))c*+(abaaaa*c+((abaac+abac)+(abaa+(ab+(c+a)))))]-> a



{8,9,11,14,15,23} {8,9,11,14,23} {19,22} {13} {9,11,14,23} {9,11,12,14,23} {10} {20,23} {15} {13,15} s a 

{8,9,11,14,15,23} -[a]-> {9,11,12,14,23}
{8,9,11,14,15,23} -[b]-> {10}
{8,9,11,14,15,23} -[c]-> {8,9,11,14,15,23}
{8,9,11,14,23} -[b]-> {10}
{8,9,11,14,23} -[c]-> {8,9,11,14,15,23}
{19,22} -[a]-> {20,23}
{13} -[a]-> {9,11,14,23}
{9,11,14,23} -[b]-> {10}
{9,11,14,23} -[c]-> {15}
{9,11,12,14,23} -[b]-> {10}
{9,11,12,14,23} -[c]-> {13,15}
{10} -[b]-> {9,11,14,23}
{15} -[a]-> {9,11,14,23}
{13,15} -[a]-> {9,11,14,23}
{8,9,11,14,15,23} -[~]-> a
{8,9,11,14,23} -[~]-> a
{9,11,14,23} -[~]-> a
{9,11,12,14,23} -[~]-> a
{20,23} -[~]-> a
s -[abaaaa*cc+((abaac+abac)c)]-> {8,9,11,14,15,23}
s -[abaaaa*c+((abaac+abac)+(abaa+(ab+(c+a))))]-> a
{20,23} -[ba]-> {19,22}
s -[abaaba]-> {19,22}
{8,9,11,14,23} -[ac]-> {13}
{9,11,14,23} -[ac]-> {13}
{9,11,12,14,23} -[ac]-> {13}
s -[(abaaaa*ca+((abaac+abac)a))c]-> {13}
s -[(abaaaa*cb+((abaac+abac)b))c+abcbc]-> {8,9,11,14,23}
s -[(abaaaa*cb+((abaac+abac)b))b]-> {9,11,14,23}



{7,10} {8,9,11,14,15,23} {8,9,11,14,23} {19,22} {13} {9,11,14,23} {9,11,12,14,23} {10} {20,23} {15} {13,15} s a 

{7,10} -[b]-> {9,11,14,23}
{7,10} -[c]-> {8,9,11,14,23}
{8,9,11,14,15,23} -[a]-> {9,11,12,14,23}
{8,9,11,14,15,23} -[b]-> {10}
{8,9,11,14,15,23} -[c]-> {8,9,11,14,15,23}
{8,9,11,14,23} -[b]-> {10}
{8,9,11,14,23} -[c]-> {8,9,11,14,15,23}
{19,22} -[a]-> {20,23}
{13} -[a]-> {9,11,14,23}
{9,11,14,23} -[b]-> {10}
{9,11,14,23} -[c]-> {15}
{9,11,12,14,23} -[b]-> {10}
{9,11,12,14,23} -[c]-> {13,15}
{10} -[b]-> {9,11,14,23}
{15} -[a]-> {9,11,14,23}
{13,15} -[a]-> {9,11,14,23}
{8,9,11,14,15,23} -[~]-> a
{8,9,11,14,23} -[~]-> a
{9,11,14,23} -[~]-> a
{9,11,12,14,23} -[~]-> a
{20,23} -[~]-> a
s -[abcbc]-> {8,9,11,14,23}
s -[abaaaa*cb+((abaac+abac)b)]-> {7,10}
s -[abaaaa*cc+((abaac+abac)c)]-> {8,9,11,14,15,23}
s -[abaaaa*c+((abaac+abac)+(abaa+(ab+(c+a))))]-> a
{20,23} -[ba]-> {19,22}
s -[abaaba]-> {19,22}
{8,9,11,14,23} -[ac]-> {13}
{9,11,14,23} -[ac]-> {13}
{9,11,12,14,23} -[ac]-> {13}
s -[(abaaaa*ca+((abaac+abac)a))c]-> {13}



{12} {7,10} {8,9,11,14,15,23} {8,9,11,14,23} {19,22} {13} {9,11,14,23} {9,11,12,14,23} {10} {20,23} {15} {13,15} s a 

{12} -[c]-> {13}
{7,10} -[b]-> {9,11,14,23}
{7,10} -[c]-> {8,9,11,14,23}
{8,9,11,14,15,23} -[a]-> {9,11,12,14,23}
{8,9,11,14,15,23} -[b]-> {10}
{8,9,11,14,15,23} -[c]-> {8,9,11,14,15,23}
{8,9,11,14,23} -[a]-> {12}
{8,9,11,14,23} -[b]-> {10}
{8,9,11,14,23} -[c]-> {8,9,11,14,15,23}
{19,22} -[a]-> {20,23}
{13} -[a]-> {9,11,14,23}
{9,11,14,23} -[a]-> {12}
{9,11,14,23} -[b]-> {10}
{9,11,14,23} -[c]-> {15}
{9,11,12,14,23} -[a]-> {12}
{9,11,12,14,23} -[b]-> {10}
{9,11,12,14,23} -[c]-> {13,15}
{10} -[b]-> {9,11,14,23}
{15} -[a]-> {9,11,14,23}
{13,15} -[a]-> {9,11,14,23}
{8,9,11,14,15,23} -[~]-> a
{8,9,11,14,23} -[~]-> a
{9,11,14,23} -[~]-> a
{9,11,12,14,23} -[~]-> a
{20,23} -[~]-> a
s -[abcbc]-> {8,9,11,14,23}
s -[abaaaa*ca+((abaac+abac)a)]-> {12}
s -[abaaaa*cb+((abaac+abac)b)]-> {7,10}
s -[abaaaa*cc+((abaac+abac)c)]-> {8,9,11,14,15,23}
s -[abaaaa*c+((abaac+abac)+(abaa+(ab+(c+a))))]-> a
{20,23} -[ba]-> {19,22}
s -[abaaba]-> {19,22}



{21} {12} {7,10} {8,9,11,14,15,23} {8,9,11,14,23} {19,22} {13} {9,11,14,23} {9,11,12,14,23} {10} {20,23} {15} {13,15} s a 

{21} -[a]-> {19,22}
{12} -[c]-> {13}
{7,10} -[b]-> {9,11,14,23}
{7,10} -[c]-> {8,9,11,14,23}
{8,9,11,14,15,23} -[a]-> {9,11,12,14,23}
{8,9,11,14,15,23} -[b]-> {10}
{8,9,11,14,15,23} -[c]-> {8,9,11,14,15,23}
{8,9,11,14,23} -[a]-> {12}
{8,9,11,14,23} -[b]-> {10}
{8,9,11,14,23} -[c]-> {8,9,11,14,15,23}
{19,22} -[a]-> {20,23}
{13} -[a]-> {9,11,14,23}
{9,11,14,23} -[a]-> {12}
{9,11,14,23} -[b]-> {10}
{9,11,14,23} -[c]-> {15}
{9,11,12,14,23} -[a]-> {12}
{9,11,12,14,23} -[b]-> {10}
{9,11,12,14,23} -[c]-> {13,15}
{10} -[b]-> {9,11,14,23}
{20,23} -[b]-> {21}
{15} -[a]-> {9,11,14,23}
{13,15} -[a]-> {9,11,14,23}
{8,9,11,14,15,23} -[~]-> a
{8,9,11,14,23} -[~]-> a
{9,11,14,23} -[~]-> a
{9,11,12,14,23} -[~]-> a
{20,23} -[~]-> a
s -[abaab]-> {21}
s -[abcbc]-> {8,9,11,14,23}
s -[abaaaa*ca+((abaac+abac)a)]-> {12}
s -[abaaaa*cb+((abaac+abac)b)]-> {7,10}
s -[abaaaa*cc+((abaac+abac)c)]-> {8,9,11,14,15,23}
s -[abaaaa*c+((abaac+abac)+(abaa+(ab+(c+a))))]-> a



{3,4,5,7} {21} {12} {7,10} {8,9,11,14,15,23} {8,9,11,14,23} {19,22} {13} {9,11,14,23} {9,11,12,14,23} {10} {20,23} {15} {13,15} s a 

{3,4,5,7} -[a]-> {3,4,5,7}
{21} -[a]-> {19,22}
{12} -[c]-> {13}
{7,10} -[b]-> {9,11,14,23}
{7,10} -[c]-> {8,9,11,14,23}
{8,9,11,14,15,23} -[a]-> {9,11,12,14,23}
{8,9,11,14,15,23} -[b]-> {10}
{8,9,11,14,15,23} -[c]-> {8,9,11,14,15,23}
{8,9,11,14,23} -[a]-> {12}
{8,9,11,14,23} -[b]-> {10}
{8,9,11,14,23} -[c]-> {8,9,11,14,15,23}
{19,22} -[a]-> {20,23}
{13} -[a]-> {9,11,14,23}
{9,11,14,23} -[a]-> {12}
{9,11,14,23} -[b]-> {10}
{9,11,14,23} -[c]-> {15}
{9,11,12,14,23} -[a]-> {12}
{9,11,12,14,23} -[b]-> {10}
{9,11,12,14,23} -[c]-> {13,15}
{10} -[b]-> {9,11,14,23}
{20,23} -[b]-> {21}
{15} -[a]-> {9,11,14,23}
{13,15} -[a]-> {9,11,14,23}
{8,9,11,14,15,23} -[~]-> a
{8,9,11,14,23} -[~]-> a
{9,11,14,23} -[~]-> a
{9,11,12,14,23} -[~]-> a
{20,23} -[~]-> a
s -[abaaa]-> {3,4,5,7}
s -[abaab]-> {21}
{3,4,5,7} -[ca]-> {12}
{3,4,5,7} -[cb]-> {7,10}
{3,4,5,7} -[cc]-> {8,9,11,14,15,23}
{3,4,5,7} -[c]-> a
s -[(abaac+abac)a]-> {12}
s -[(abaac+abac)b]-> {7,10}
s -[(abaac+abac)c]-> {8,9,11,14,15,23}
s -[(abaac+abac)+(abaa+(ab+(c+a)))]-> a
s -[abcbc]-> {8,9,11,14,23}



{7} {3,4,5,7} {21} {12} {7,10} {8,9,11,14,15,23} {8,9,11,14,23} {19,22} {13} {9,11,14,23} {9,11,12,14,23} {10} {20,23} {15} {13,15} s a 

{7} -[c]-> {8,9,11,14,23}
{3,4,5,7} -[a]-> {3,4,5,7}
{21} -[a]-> {19,22}
{12} -[c]-> {13}
{7,10} -[b]-> {9,11,14,23}
{7,10} -[c]-> {8,9,11,14,23}
{8,9,11,14,15,23} -[a]-> {9,11,12,14,23}
{8,9,11,14,15,23} -[b]-> {10}
{8,9,11,14,15,23} -[c]-> {8,9,11,14,15,23}
{8,9,11,14,23} -[a]-> {12}
{8,9,11,14,23} -[b]-> {10}
{8,9,11,14,23} -[c]-> {8,9,11,14,15,23}
{19,22} -[a]-> {20,23}
{13} -[a]-> {9,11,14,23}
{9,11,14,23} -[a]-> {12}
{9,11,14,23} -[b]-> {10}
{9,11,14,23} -[c]-> {15}
{9,11,12,14,23} -[a]-> {12}
{9,11,12,14,23} -[b]-> {10}
{9,11,12,14,23} -[c]-> {13,15}
{10} -[b]-> {9,11,14,23}
{20,23} -[b]-> {21}
{15} -[a]-> {9,11,14,23}
{13,15} -[a]-> {9,11,14,23}
{8,9,11,14,15,23} -[~]-> a
{8,9,11,14,23} -[~]-> a
{9,11,14,23} -[~]-> a
{9,11,12,14,23} -[~]-> a
{20,23} -[~]-> a
s -[abcb]-> {7}
s -[abaaa]-> {3,4,5,7}
s -[abaab]-> {21}
{3,4,5,7} -[ca]-> {12}
{3,4,5,7} -[cb]-> {7,10}
{3,4,5,7} -[cc]-> {8,9,11,14,15,23}
{3,4,5,7} -[c]-> a
s -[(abaac+abac)a]-> {12}
s -[(abaac+abac)b]-> {7,10}
s -[(abaac+abac)c]-> {8,9,11,14,15,23}
s -[(abaac+abac)+(abaa+(ab+(c+a)))]-> a



{6,8,9,11,14,23} {7} {3,4,5,7} {21} {12} {7,10} {8,9,11,14,15,23} {8,9,11,14,23} {19,22} {13} {9,11,14,23} {9,11,12,14,23} {10} {20,23} {15} {13,15} s a 

{6,8,9,11,14,23} -[a]-> {12}
{6,8,9,11,14,23} -[b]-> {7,10}
{6,8,9,11,14,23} -[c]-> {8,9,11,14,15,23}
{7} -[c]-> {8,9,11,14,23}
{3,4,5,7} -[a]-> {3,4,5,7}
{3,4,5,7} -[c]-> {6,8,9,11,14,23}
{21} -[a]-> {19,22}
{12} -[c]-> {13}
{7,10} -[b]-> {9,11,14,23}
{7,10} -[c]-> {8,9,11,14,23}
{8,9,11,14,15,23} -[a]-> {9,11,12,14,23}
{8,9,11,14,15,23} -[b]-> {10}
{8,9,11,14,15,23} -[c]-> {8,9,11,14,15,23}
{8,9,11,14,23} -[a]-> {12}
{8,9,11,14,23} -[b]-> {10}
{8,9,11,14,23} -[c]-> {8,9,11,14,15,23}
{19,22} -[a]-> {20,23}
{13} -[a]-> {9,11,14,23}
{9,11,14,23} -[a]-> {12}
{9,11,14,23} -[b]-> {10}
{9,11,14,23} -[c]-> {15}
{9,11,12,14,23} -[a]-> {12}
{9,11,12,14,23} -[b]-> {10}
{9,11,12,14,23} -[c]-> {13,15}
{10} -[b]-> {9,11,14,23}
{20,23} -[b]-> {21}
{15} -[a]-> {9,11,14,23}
{13,15} -[a]-> {9,11,14,23}
{6,8,9,11,14,23} -[~]-> a
{8,9,11,14,15,23} -[~]-> a
{8,9,11,14,23} -[~]-> a
{9,11,14,23} -[~]-> a
{9,11,12,14,23} -[~]-> a
{20,23} -[~]-> a
s -[abcb]-> {7}
s -[abaac+abac]-> {6,8,9,11,14,23}
s -[abaaa]-> {3,4,5,7}
s -[abaab]-> {21}
s -[abaa+(ab+(c+a))]-> a



{3,4,5,7,20,23} {6,8,9,11,14,23} {7} {3,4,5,7} {21} {12} {7,10} {8,9,11,14,15,23} {8,9,11,14,23} {19,22} {13} {9,11,14,23} {9,11,12,14,23} {10} {20,23} {15} {13,15} s a 

{3,4,5,7,20,23} -[a]-> {3,4,5,7}
{3,4,5,7,20,23} -[b]-> {21}
{3,4,5,7,20,23} -[c]-> {6,8,9,11,14,23}
{6,8,9,11,14,23} -[a]-> {12}
{6,8,9,11,14,23} -[b]-> {7,10}
{6,8,9,11,14,23} -[c]-> {8,9,11,14,15,23}
{7} -[c]-> {8,9,11,14,23}
{3,4,5,7} -[a]-> {3,4,5,7}
{3,4,5,7} -[c]-> {6,8,9,11,14,23}
{21} -[a]-> {19,22}
{12} -[c]-> {13}
{7,10} -[b]-> {9,11,14,23}
{7,10} -[c]-> {8,9,11,14,23}
{8,9,11,14,15,23} -[a]-> {9,11,12,14,23}
{8,9,11,14,15,23} -[b]-> {10}
{8,9,11,14,15,23} -[c]-> {8,9,11,14,15,23}
{8,9,11,14,23} -[a]-> {12}
{8,9,11,14,23} -[b]-> {10}
{8,9,11,14,23} -[c]-> {8,9,11,14,15,23}
{19,22} -[a]-> {20,23}
{13} -[a]-> {9,11,14,23}
{9,11,14,23} -[a]-> {12}
{9,11,14,23} -[b]-> {10}
{9,11,14,23} -[c]-> {15}
{9,11,12,14,23} -[a]-> {12}
{9,11,12,14,23} -[b]-> {10}
{9,11,12,14,23} -[c]-> {13,15}
{10} -[b]-> {9,11,14,23}
{20,23} -[b]-> {21}
{15} -[a]-> {9,11,14,23}
{13,15} -[a]-> {9,11,14,23}
{3,4,5,7,20,23} -[~]-> a
{6,8,9,11,14,23} -[~]-> a
{8,9,11,14,15,23} -[~]-> a
{8,9,11,14,23} -[~]-> a
{9,11,14,23} -[~]-> a
{9,11,12,14,23} -[~]-> a
{20,23} -[~]-> a
s -[ab+(c+a)]-> a
s -[abaa]-> {3,4,5,7,20,23}
s -[abac]-> {6,8,9,11,14,23}
s -[abcb]-> {7}



{6} {3,4,5,7,20,23} {6,8,9,11,14,23} {7} {3,4,5,7} {21} {12} {7,10} {8,9,11,14,15,23} {8,9,11,14,23} {19,22} {13} {9,11,14,23} {9,11,12,14,23} {10} {20,23} {15} {13,15} s a 

{6} -[b]-> {7}
{3,4,5,7,20,23} -[a]-> {3,4,5,7}
{3,4,5,7,20,23} -[b]-> {21}
{3,4,5,7,20,23} -[c]-> {6,8,9,11,14,23}
{6,8,9,11,14,23} -[a]-> {12}
{6,8,9,11,14,23} -[b]-> {7,10}
{6,8,9,11,14,23} -[c]-> {8,9,11,14,15,23}
{7} -[c]-> {8,9,11,14,23}
{3,4,5,7} -[a]-> {3,4,5,7}
{3,4,5,7} -[c]-> {6,8,9,11,14,23}
{21} -[a]-> {19,22}
{12} -[c]-> {13}
{7,10} -[b]-> {9,11,14,23}
{7,10} -[c]-> {8,9,11,14,23}
{8,9,11,14,15,23} -[a]-> {9,11,12,14,23}
{8,9,11,14,15,23} -[b]-> {10}
{8,9,11,14,15,23} -[c]-> {8,9,11,14,15,23}
{8,9,11,14,23} -[a]-> {12}
{8,9,11,14,23} -[b]-> {10}
{8,9,11,14,23} -[c]-> {8,9,11,14,15,23}
{19,22} -[a]-> {20,23}
{13} -[a]-> {9,11,14,23}
{9,11,14,23} -[a]-> {12}
{9,11,14,23} -[b]-> {10}
{9,11,14,23} -[c]-> {15}
{9,11,12,14,23} -[a]-> {12}
{9,11,12,14,23} -[b]-> {10}
{9,11,12,14,23} -[c]-> {13,15}
{10} -[b]-> {9,11,14,23}
{20,23} -[b]-> {21}
{15} -[a]-> {9,11,14,23}
{13,15} -[a]-> {9,11,14,23}
{3,4,5,7,20,23} -[~]-> a
{6,8,9,11,14,23} -[~]-> a
{8,9,11,14,15,23} -[~]-> a
{8,9,11,14,23} -[~]-> a
{9,11,14,23} -[~]-> a
{9,11,12,14,23} -[~]-> a
{20,23} -[~]-> a
s -[abc]-> {6}
s -[ab+(c+a)]-> a
s -[abaa]-> {3,4,5,7,20,23}
s -[abac]-> {6,8,9,11,14,23}



{3,4,5,7,19,22} {6} {3,4,5,7,20,23} {6,8,9,11,14,23} {7} {3,4,5,7} {21} {12} {7,10} {8,9,11,14,15,23} {8,9,11,14,23} {19,22} {13} {9,11,14,23} {9,11,12,14,23} {10} {20,23} {15} {13,15} s a 

{3,4,5,7,19,22} -[a]-> {3,4,5,7,20,23}
{3,4,5,7,19,22} -[c]-> {6,8,9,11,14,23}
{6} -[b]-> {7}
{3,4,5,7,20,23} -[a]-> {3,4,5,7}
{3,4,5,7,20,23} -[b]-> {21}
{3,4,5,7,20,23} -[c]-> {6,8,9,11,14,23}
{6,8,9,11,14,23} -[a]-> {12}
{6,8,9,11,14,23} -[b]-> {7,10}
{6,8,9,11,14,23} -[c]-> {8,9,11,14,15,23}
{7} -[c]-> {8,9,11,14,23}
{3,4,5,7} -[a]-> {3,4,5,7}
{3,4,5,7} -[c]-> {6,8,9,11,14,23}
{21} -[a]-> {19,22}
{12} -[c]-> {13}
{7,10} -[b]-> {9,11,14,23}
{7,10} -[c]-> {8,9,11,14,23}
{8,9,11,14,15,23} -[a]-> {9,11,12,14,23}
{8,9,11,14,15,23} -[b]-> {10}
{8,9,11,14,15,23} -[c]-> {8,9,11,14,15,23}
{8,9,11,14,23} -[a]-> {12}
{8,9,11,14,23} -[b]-> {10}
{8,9,11,14,23} -[c]-> {8,9,11,14,15,23}
{19,22} -[a]-> {20,23}
{13} -[a]-> {9,11,14,23}
{9,11,14,23} -[a]-> {12}
{9,11,14,23} -[b]-> {10}
{9,11,14,23} -[c]-> {15}
{9,11,12,14,23} -[a]-> {12}
{9,11,12,14,23} -[b]-> {10}
{9,11,12,14,23} -[c]-> {13,15}
{10} -[b]-> {9,11,14,23}
{20,23} -[b]-> {21}
{15} -[a]-> {9,11,14,23}
{13,15} -[a]-> {9,11,14,23}
{3,4,5,7,20,23} -[~]-> a
{6,8,9,11,14,23} -[~]-> a
{8,9,11,14,15,23} -[~]-> a
{8,9,11,14,23} -[~]-> a
{9,11,14,23} -[~]-> a
{9,11,12,14,23} -[~]-> a
{20,23} -[~]-> a
s -[aba]-> {3,4,5,7,19,22}
s -[abc]-> {6}
s -[ab+(c+a)]-> a



{3,4,5,21,23} {3,4,5,7,19,22} {6} {3,4,5,7,20,23} {6,8,9,11,14,23} {7} {3,4,5,7} {21} {12} {7,10} {8,9,11,14,15,23} {8,9,11,14,23} {19,22} {13} {9,11,14,23} {9,11,12,14,23} {10} {20,23} {15} {13,15} s a 

{3,4,5,21,23} -[a]-> {3,4,5,7,19,22}
{3,4,5,21,23} -[c]-> {6}
{3,4,5,7,19,22} -[a]-> {3,4,5,7,20,23}
{3,4,5,7,19,22} -[c]-> {6,8,9,11,14,23}
{6} -[b]-> {7}
{3,4,5,7,20,23} -[a]-> {3,4,5,7}
{3,4,5,7,20,23} -[b]-> {21}
{3,4,5,7,20,23} -[c]-> {6,8,9,11,14,23}
{6,8,9,11,14,23} -[a]-> {12}
{6,8,9,11,14,23} -[b]-> {7,10}
{6,8,9,11,14,23} -[c]-> {8,9,11,14,15,23}
{7} -[c]-> {8,9,11,14,23}
{3,4,5,7} -[a]-> {3,4,5,7}
{3,4,5,7} -[c]-> {6,8,9,11,14,23}
{21} -[a]-> {19,22}
{12} -[c]-> {13}
{7,10} -[b]-> {9,11,14,23}
{7,10} -[c]-> {8,9,11,14,23}
{8,9,11,14,15,23} -[a]-> {9,11,12,14,23}
{8,9,11,14,15,23} -[b]-> {10}
{8,9,11,14,15,23} -[c]-> {8,9,11,14,15,23}
{8,9,11,14,23} -[a]-> {12}
{8,9,11,14,23} -[b]-> {10}
{8,9,11,14,23} -[c]-> {8,9,11,14,15,23}
{19,22} -[a]-> {20,23}
{13} -[a]-> {9,11,14,23}
{9,11,14,23} -[a]-> {12}
{9,11,14,23} -[b]-> {10}
{9,11,14,23} -[c]-> {15}
{9,11,12,14,23} -[a]-> {12}
{9,11,12,14,23} -[b]-> {10}
{9,11,12,14,23} -[c]-> {13,15}
{10} -[b]-> {9,11,14,23}
{20,23} -[b]-> {21}
{15} -[a]-> {9,11,14,23}
{13,15} -[a]-> {9,11,14,23}
{3,4,5,21,23} -[~]-> a
{3,4,5,7,20,23} -[~]-> a
{6,8,9,11,14,23} -[~]-> a
{8,9,11,14,15,23} -[~]-> a
{8,9,11,14,23} -[~]-> a
{9,11,14,23} -[~]-> a
{9,11,12,14,23} -[~]-> a
{20,23} -[~]-> a
s -[ab]-> {3,4,5,21,23}
s -[c+a]-> a



{23} {3,4,5,21,23} {3,4,5,7,19,22} {6} {3,4,5,7,20,23} {6,8,9,11,14,23} {7} {3,4,5,7} {21} {12} {7,10} {8,9,11,14,15,23} {8,9,11,14,23} {19,22} {13} {9,11,14,23} {9,11,12,14,23} {10} {20,23} {15} {13,15} s a 

{3,4,5,21,23} -[a]-> {3,4,5,7,19,22}
{3,4,5,21,23} -[c]-> {6}
{3,4,5,7,19,22} -[a]-> {3,4,5,7,20,23}
{3,4,5,7,19,22} -[c]-> {6,8,9,11,14,23}
{6} -[b]-> {7}
{3,4,5,7,20,23} -[a]-> {3,4,5,7}
{3,4,5,7,20,23} -[b]-> {21}
{3,4,5,7,20,23} -[c]-> {6,8,9,11,14,23}
{6,8,9,11,14,23} -[a]-> {12}
{6,8,9,11,14,23} -[b]-> {7,10}
{6,8,9,11,14,23} -[c]-> {8,9,11,14,15,23}
{7} -[c]-> {8,9,11,14,23}
{3,4,5,7} -[a]-> {3,4,5,7}
{3,4,5,7} -[c]-> {6,8,9,11,14,23}
{21} -[a]-> {19,22}
{12} -[c]-> {13}
{7,10} -[b]-> {9,11,14,23}
{7,10} -[c]-> {8,9,11,14,23}
{8,9,11,14,15,23} -[a]-> {9,11,12,14,23}
{8,9,11,14,15,23} -[b]-> {10}
{8,9,11,14,15,23} -[c]-> {8,9,11,14,15,23}
{8,9,11,14,23} -[a]-> {12}
{8,9,11,14,23} -[b]-> {10}
{8,9,11,14,23} -[c]-> {8,9,11,14,15,23}
{19,22} -[a]-> {20,23}
{13} -[a]-> {9,11,14,23}
{9,11,14,23} -[a]-> {12}
{9,11,14,23} -[b]-> {10}
{9,11,14,23} -[c]-> {15}
{9,11,12,14,23} -[a]-> {12}
{9,11,12,14,23} -[b]-> {10}
{9,11,12,14,23} -[c]-> {13,15}
{10} -[b]-> {9,11,14,23}
{20,23} -[b]-> {21}
{15} -[a]-> {9,11,14,23}
{13,15} -[a]-> {9,11,14,23}
{23} -[~]-> a
{3,4,5,21,23} -[~]-> a
{3,4,5,7,20,23} -[~]-> a
{6,8,9,11,14,23} -[~]-> a
{8,9,11,14,15,23} -[~]-> a
{8,9,11,14,23} -[~]-> a
{9,11,14,23} -[~]-> a
{9,11,12,14,23} -[~]-> a
{20,23} -[~]-> a
s -[c]-> {23}
s -[ab]-> {3,4,5,21,23}
s -[a]-> a



{2,17,20,23} {23} {3,4,5,21,23} {3,4,5,7,19,22} {6} {3,4,5,7,20,23} {6,8,9,11,14,23} {7} {3,4,5,7} {21} {12} {7,10} {8,9,11,14,15,23} {8,9,11,14,23} {19,22} {13} {9,11,14,23} {9,11,12,14,23} {10} {20,23} {15} {13,15} s a 

{2,17,20,23} -[b]-> {3,4,5,21,23}
{3,4,5,21,23} -[a]-> {3,4,5,7,19,22}
{3,4,5,21,23} -[c]-> {6}
{3,4,5,7,19,22} -[a]-> {3,4,5,7,20,23}
{3,4,5,7,19,22} -[c]-> {6,8,9,11,14,23}
{6} -[b]-> {7}
{3,4,5,7,20,23} -[a]-> {3,4,5,7}
{3,4,5,7,20,23} -[b]-> {21}
{3,4,5,7,20,23} -[c]-> {6,8,9,11,14,23}
{6,8,9,11,14,23} -[a]-> {12}
{6,8,9,11,14,23} -[b]-> {7,10}
{6,8,9,11,14,23} -[c]-> {8,9,11,14,15,23}
{7} -[c]-> {8,9,11,14,23}
{3,4,5,7} -[a]-> {3,4,5,7}
{3,4,5,7} -[c]-> {6,8,9,11,14,23}
{21} -[a]-> {19,22}
{12} -[c]-> {13}
{7,10} -[b]-> {9,11,14,23}
{7,10} -[c]-> {8,9,11,14,23}
{8,9,11,14,15,23} -[a]-> {9,11,12,14,23}
{8,9,11,14,15,23} -[b]-> {10}
{8,9,11,14,15,23} -[c]-> {8,9,11,14,15,23}
{8,9,11,14,23} -[a]-> {12}
{8,9,11,14,23} -[b]-> {10}
{8,9,11,14,23} -[c]-> {8,9,11,14,15,23}
{19,22} -[a]-> {20,23}
{13} -[a]-> {9,11,14,23}
{9,11,14,23} -[a]-> {12}
{9,11,14,23} -[b]-> {10}
{9,11,14,23} -[c]-> {15}
{9,11,12,14,23} -[a]-> {12}
{9,11,12,14,23} -[b]-> {10}
{9,11,12,14,23} -[c]-> {13,15}
{10} -[b]-> {9,11,14,23}
{20,23} -[b]-> {21}
{15} -[a]-> {9,11,14,23}
{13,15} -[a]-> {9,11,14,23}
{2,17,20,23} -[~]-> a
{23} -[~]-> a
{3,4,5,21,23} -[~]-> a
{3,4,5,7,20,23} -[~]-> a
{6,8,9,11,14,23} -[~]-> a
{8,9,11,14,15,23} -[~]-> a
{8,9,11,14,23} -[~]-> a
{9,11,14,23} -[~]-> a
{9,11,12,14,23} -[~]-> a
{20,23} -[~]-> a
s -[a]-> {2,17,20,23}
s -[c]-> {23}



s a 

s -[(a(ba)*bc+c)]-> a



q2 s a 

q2 -[~]-> a
s -[a(ba)*bc+c]-> q2



q1 q2 s a 

q2 -[~]-> a
q1 -[ba]-> q1
q1 -[bc]-> q2
s -[a]-> q1
s -[c]-> q2



s a 

s -[(a(ba)*bc+c)c*]-> a



q2 s a 

q2 -[c]-> q2
q2 -[~]-> a
s -[a(ba)*bc+c]-> q2



q1 q2 s a 

q2 -[c]-> q2
q2 -[~]-> a
q1 -[ba]-> q1
q1 -[bc]-> q2
s -[a]-> q1
s -[c]-> q2



s a 

s -[(a(ba)*bc+c)c*]-> a



q2 s a 

q2 -[c]-> q2
q2 -[~]-> a
s -[a(ba)*bc+c]-> q2



q1 q2 s a 

q2 -[c]-> q2
q2 -[~]-> a
q1 -[ba]-> q1
q1 -[bc]-> q2
s -[a]-> q1
s -[c]-> q2



s a 

s -[(a(ba)*bc+c)c*]-> a



q2 s a 

q2 -[c]-> q2
q2 -[~]-> a
s -[a(ba)*bc+c]-> q2



q1 q2 s a 

q2 -[c]-> q2
q2 -[~]-> a
q1 -[ba]-> q1
q1 -[bc]-> q2
s -[a]-> q1
s -[c]-> q2



s a 

p2 -[p]-> 5
s -[~]->  p6
p2 -[ba(aa)*ab+bb]-> p2
p2 -[ba(aa)*a+b]-> a
p5 -[bb+a]-> p5
p5 -[b]-> a
p6 -[aa+b]-> p6
p6 -[a]-> a



p6 s a 

p2 -[p]-> 5
s -[~]->  p6
p2 -[ba(aa)*ab+bb]-> p2
p2 -[ba(aa)*a+b]-> a
p5 -[bb+a]-> p5
p5 -[b]-> a
p6 -[aa+b]-> p6
p6 -[a]-> a



p5 p6 s a 

p2 -[p]-> 5
s -[~]->  p6
p2 -[ba(aa)*ab+bb]-> p2
p2 -[ba(aa)*a+b]-> a
p5 -[bb+a]-> p5
p5 -[b]-> a
p6 -[aa+b]-> p6
p6 -[a]-> a



p4 p5 p6 s a 

p2 -[a]-> p4
p4 -[a]-> p6
p6 -[a]-> p4
p6 -[b]-> p6
p2 -[p]-> 5
s -[~]->  p6
p4 -[~]-> a
p6 -[~]-> a
p2 -[ba(aa)*ab+bb]-> p2
p2 -[ba(aa)*a+b]-> a
p5 -[bb+a]-> p5
p5 -[b]-> a



p3 p4 p5 p6 s a 

p2 -[a]-> p4
p3 -[b]-> p5
p4 -[a]-> p6
p5 -[a]-> p5
p5 -[b]-> p3
p6 -[a]-> p4
p6 -[b]-> p6
p2 -[p]-> 5
s -[~]->  p6
p3 -[~]-> a
p4 -[~]-> a
p5 -[~]-> a
p6 -[~]-> a
p2 -[ba(aa)*ab+bb]-> p2
p2 -[ba(aa)*b]-> p3
p2 -[ba(aa)*a+b]-> a



p2 p3 p4 p5 p6 s a 

p2 -[a]-> p4
p3 -[b]-> p5
p4 -[a]-> p6
p5 -[a]-> p5
p5 -[b]-> p3
p6 -[a]-> p4
p6 -[b]-> p6
p2 -[p]-> 5
s -[~]->  p6
p3 -[~]-> a
p4 -[~]-> a
p5 -[~]-> a
p6 -[~]-> a
p2 -[ba(aa)*ab+bb]-> p2
p2 -[ba(aa)*b]-> p3
p2 -[ba(aa)*a+b]-> a



p1 p2 p3 p4 p5 p6 s a 

p1 -[b]-> p3
p2 -[a]-> p4
p3 -[b]-> p5
p4 -[a]-> p6
p5 -[a]-> p5
p5 -[b]-> p3
p6 -[a]-> p4
p6 -[b]-> p6
p2 -[p]-> 5
s -[~]->  p6
p3 -[~]-> a
p4 -[~]-> a
p5 -[~]-> a
p6 -[~]-> a
p1 -[aa]-> p1
p1 -[ab]-> p2
p1 -[a]-> a
p2 -[ba]-> p1
p2 -[bb]-> p2
p2 -[b]-> a



s a 

s -[(((a(aa)*ab+b)(ba(aa)*ab+bb)*a)a)(aa+b)*+((((a(aa)*ab+b)(ba(aa)*ab+bb)*ba(aa)*b+a(aa)*b)b)(bb+a)*+((a(aa)*ab+b)(ba(aa)*ab+bb)*ba(aa)*+a(aa)*))]-> a



p6 s a 

p6 -[~]-> a
p6 -[aa+b]-> p6
s -[((a(aa)*ab+b)(ba(aa)*ab+bb)*a)a]-> p6
s -[(((a(aa)*ab+b)(ba(aa)*ab+bb)*ba(aa)*b+a(aa)*b)b)(bb+a)*+((a(aa)*ab+b)(ba(aa)*ab+bb)*ba(aa)*+a(aa)*)]-> a



p5 p6 s a 

p5 -[~]-> a
p6 -[~]-> a
s -[(a(aa)*ab+b)(ba(aa)*ab+bb)*ba(aa)*+a(aa)*]-> a
p5 -[bb+a]-> p5
s -[((a(aa)*ab+b)(ba(aa)*ab+bb)*ba(aa)*b+a(aa)*b)b]-> p5
p6 -[aa+b]-> p6
s -[((a(aa)*ab+b)(ba(aa)*ab+bb)*a)a]-> p6



p4 p5 p6 s a 

p4 -[a]-> p6
p6 -[a]-> p4
p6 -[b]-> p6
p5 -[~]-> a
p6 -[~]-> a
s -[(a(aa)*ab+b)(ba(aa)*ab+bb)*a]-> p4
s -[(a(aa)*ab+b)(ba(aa)*ab+bb)*ba(aa)*+a(aa)*]-> a
p5 -[bb+a]-> p5
s -[((a(aa)*ab+b)(ba(aa)*ab+bb)*ba(aa)*b+a(aa)*b)b]-> p5



p3 p4 p5 p6 s a 

p3 -[b]-> p5
p4 -[a]-> p6
p5 -[a]-> p5
p5 -[b]-> p3
p6 -[a]-> p4
p6 -[b]-> p6
p5 -[~]-> a
p6 -[~]-> a
s -[(a(aa)*ab+b)(ba(aa)*ab+bb)*ba(aa)*b+a(aa)*b]-> p3
s -[(a(aa)*ab+b)(ba(aa)*ab+bb)*a]-> p4
s -[(a(aa)*ab+b)(ba(aa)*ab+bb)*ba(aa)*+a(aa)*]-> a



p2 p3 p4 p5 p6 s a 

p2 -[a]-> p4
p3 -[b]-> p5
p4 -[a]-> p6
p5 -[a]-> p5
p5 -[b]-> p3
p6 -[a]-> p4
p6 -[b]-> p6
p5 -[~]-> a
p6 -[~]-> a
p2 -[ba(aa)*ab+bb]-> p2
p2 -[ba(aa)*b]-> p3
p2 -[ba(aa)*]-> a
s -[a(aa)*ab+b]-> p2
s -[a(aa)*b]-> p3
s -[a(aa)*]-> a



p1 p2 p3 p4 p5 p6 s a 

p1 -[b]-> p3
p2 -[a]-> p4
p3 -[b]-> p5
p4 -[a]-> p6
p5 -[a]-> p5
p5 -[b]-> p3
p6 -[a]-> p4
p6 -[b]-> p6
p1 -[~]-> a
p2 -[~]-> a
p5 -[~]-> a
p6 -[~]-> a
p1 -[aa]-> p1
p1 -[ab]-> p2
p2 -[ba]-> p1
p2 -[bb]-> p2
s -[a]-> p1
s -[b]-> p2



s a 

s -[((abaa*cb+abcb)c+abaa*cc)c*+abaa*c]-> a



p7 s a 

p7 -[c]-> p7
p7 -[~]-> a
s -[abaa*c]-> a
s -[(abaa*cb+abcb)c+abaa*cc]-> p7



p6 p7 s a 

p6 -[c]-> p7
p7 -[c]-> p7
p7 -[~]-> a
s -[abaa*cb+abcb]-> p6
s -[abaa*cc]-> p7
s -[abaa*c]-> a



p5 p6 p7 s a 

p5 -[b]-> p6
p5 -[c]-> p7
p6 -[c]-> p7
p7 -[c]-> p7
p5 -[~]-> a
p7 -[~]-> a
s -[abaa*c]-> p5
s -[abcb]-> p6



p4 p5 p6 p7 s a 

p4 -[b]-> p6
p5 -[b]-> p6
p5 -[c]-> p7
p6 -[c]-> p7
p7 -[c]-> p7
p5 -[~]-> a
p7 -[~]-> a
s -[abc]-> p4
s -[abaa*c]-> p5



p3 p4 p5 p6 p7 s a 

p3 -[a]-> p3
p3 -[c]-> p5
p4 -[b]-> p6
p5 -[b]-> p6
p5 -[c]-> p7
p6 -[c]-> p7
p7 -[c]-> p7
p5 -[~]-> a
p7 -[~]-> a
s -[aba]-> p3
s -[abc]-> p4



p2 p3 p4 p5 p6 p7 s a 

p2 -[a]-> p3
p2 -[c]-> p4
p3 -[a]-> p3
p3 -[c]-> p5
p4 -[b]-> p6
p5 -[b]-> p6
p5 -[c]-> p7
p6 -[c]-> p7
p7 -[c]-> p7
p5 -[~]-> a
p7 -[~]-> a
s -[ab]-> p2



p1 p2 p3 p4 p5 p6 p7 s a 

p1 -[b]-> p2
p2 -[a]-> p3
p2 -[c]-> p4
p3 -[a]-> p3
p3 -[c]-> p5
p4 -[b]-> p6
p5 -[b]-> p6
p5 -[c]-> p7
p6 -[c]-> p7
p7 -[c]-> p7
p5 -[~]-> a
p7 -[~]-> a
s -[a]-> p1



s a 

s -[(((a(aa)*ab+b)(ba(aa)*ab+bb)*a)a)(aa+b)*+((((a(aa)*ab+b)(ba(aa)*ab+bb)*ba(aa)*b+a(aa)*b)b)(bb+a)*+((a(aa)*ab+b)(ba(aa)*ab+bb)*ba(aa)*+a(aa)*))]-> a



p6 s a 

p6 -[~]-> a
p6 -[aa+b]-> p6
s -[((a(aa)*ab+b)(ba(aa)*ab+bb)*a)a]-> p6
s -[(((a(aa)*ab+b)(ba(aa)*ab+bb)*ba(aa)*b+a(aa)*b)b)(bb+a)*+((a(aa)*ab+b)(ba(aa)*ab+bb)*ba(aa)*+a(aa)*)]-> a



p5 p6 s a 

p5 -[~]-> a
p6 -[~]-> a
s -[(a(aa)*ab+b)(ba(aa)*ab+bb)*ba(aa)*+a(aa)*]-> a
p5 -[bb+a]-> p5
s -[((a(aa)*ab+b)(ba(aa)*ab+bb)*ba(aa)*b+a(aa)*b)b]-> p5
p6 -[aa+b]-> p6
s -[((a(aa)*ab+b)(ba(aa)*ab+bb)*a)a]-> p6



p4 p5 p6 s a 

p4 -[a]-> p6
p6 -[a]-> p4
p6 -[b]-> p6
p5 -[~]-> a
p6 -[~]-> a
s -[(a(aa)*ab+b)(ba(aa)*ab+bb)*a]-> p4
s -[(a(aa)*ab+b)(ba(aa)*ab+bb)*ba(aa)*+a(aa)*]-> a
p5 -[bb+a]-> p5
s -[((a(aa)*ab+b)(ba(aa)*ab+bb)*ba(aa)*b+a(aa)*b)b]-> p5



p3 p4 p5 p6 s a 

p3 -[b]-> p5
p4 -[a]-> p6
p5 -[a]-> p5
p5 -[b]-> p3
p6 -[a]-> p4
p6 -[b]-> p6
p5 -[~]-> a
p6 -[~]-> a
s -[(a(aa)*ab+b)(ba(aa)*ab+bb)*ba(aa)*b+a(aa)*b]-> p3
s -[(a(aa)*ab+b)(ba(aa)*ab+bb)*a]-> p4
s -[(a(aa)*ab+b)(ba(aa)*ab+bb)*ba(aa)*+a(aa)*]-> a



p2 p3 p4 p5 p6 s a 

p2 -[a]-> p4
p3 -[b]-> p5
p4 -[a]-> p6
p5 -[a]-> p5
p5 -[b]-> p3
p6 -[a]-> p4
p6 -[b]-> p6
p5 -[~]-> a
p6 -[~]-> a
p2 -[ba(aa)*ab+bb]-> p2
p2 -[ba(aa)*b]-> p3
p2 -[ba(aa)*]-> a
s -[a(aa)*ab+b]-> p2
s -[a(aa)*b]-> p3
s -[a(aa)*]-> a



p1 p2 p3 p4 p5 p6 s a 

p1 -[b]-> p3
p2 -[a]-> p4
p3 -[b]-> p5
p4 -[a]-> p6
p5 -[a]-> p5
p5 -[b]-> p3
p6 -[a]-> p4
p6 -[b]-> p6
p1 -[~]-> a
p2 -[~]-> a
p5 -[~]-> a
p6 -[~]-> a
p1 -[aa]-> p1
p1 -[ab]-> p2
p2 -[ba]-> p1
p2 -[bb]-> p2
s -[a]-> p1
s -[b]-> p2



s a 

s -[(((a(aa)*ab+b)(ba(aa)*ab+bb)*a)a)(aa+b)*+((((a(aa)*ab+b)(ba(aa)*ab+bb)*ba(aa)*b+a(aa)*b)b)(bb+a)*+((a(aa)*ab+b)(ba(aa)*ab+bb)*ba(aa)*+a(aa)*))]-> a



p6 s a 

p6 -[~]-> a
p6 -[aa+b]-> p6
s -[((a(aa)*ab+b)(ba(aa)*ab+bb)*a)a]-> p6
s -[(((a(aa)*ab+b)(ba(aa)*ab+bb)*ba(aa)*b+a(aa)*b)b)(bb+a)*+((a(aa)*ab+b)(ba(aa)*ab+bb)*ba(aa)*+a(aa)*)]-> a



p5 p6 s a 

p5 -[~]-> a
p6 -[~]-> a
s -[(a(aa)*ab+b)(ba(aa)*ab+bb)*ba(aa)*+a(aa)*]-> a
p5 -[bb+a]-> p5
s -[((a(aa)*ab+b)(ba(aa)*ab+bb)*ba(aa)*b+a(aa)*b)b]-> p5
p6 -[aa+b]-> p6
s -[((a(aa)*ab+b)(ba(aa)*ab+bb)*a)a]-> p6



p4 p5 p6 s a 

p4 -[a]-> p6
p6 -[a]-> p4
p6 -[b]-> p6
p5 -[~]-> a
p6 -[~]-> a
s -[(a(aa)*ab+b)(ba(aa)*ab+bb)*a]-> p4
s -[(a(aa)*ab+b)(ba(aa)*ab+bb)*ba(aa)*+a(aa)*]-> a
p5 -[bb+a]-> p5
s -[((a(aa)*ab+b)(ba(aa)*ab+bb)*ba(aa)*b+a(aa)*b)b]-> p5



p3 p4 p5 p6 s a 

p3 -[b]-> p5
p4 -[a]-> p6
p5 -[a]-> p5
p5 -[b]-> p3
p6 -[a]-> p4
p6 -[b]-> p6
p5 -[~]-> a
p6 -[~]-> a
s -[(a(aa)*ab+b)(ba(aa)*ab+bb)*ba(aa)*b+a(aa)*b]-> p3
s -[(a(aa)*ab+b)(ba(aa)*ab+bb)*a]-> p4
s -[(a(aa)*ab+b)(ba(aa)*ab+bb)*ba(aa)*+a(aa)*]-> a



p2 p3 p4 p5 p6 s a 

p2 -[a]-> p4
p3 -[b]-> p5
p4 -[a]-> p6
p5 -[a]-> p5
p5 -[b]-> p3
p6 -[a]-> p4
p6 -[b]-> p6
p5 -[~]-> a
p6 -[~]-> a
p2 -[ba(aa)*ab+bb]-> p2
p2 -[ba(aa)*b]-> p3
p2 -[ba(aa)*]-> a
s -[a(aa)*ab+b]-> p2
s -[a(aa)*b]-> p3
s -[a(aa)*]-> a



p1 p2 p3 p4 p5 p6 s a 

p1 -[b]-> p3
p2 -[a]-> p4
p3 -[b]-> p5
p4 -[a]-> p6
p5 -[a]-> p5
p5 -[b]-> p3
p6 -[a]-> p4
p6 -[b]-> p6
p1 -[~]-> a
p2 -[~]-> a
p5 -[~]-> a
p6 -[~]-> a
p1 -[aa]-> p1
p1 -[ab]-> p2
p2 -[ba]-> p1
p2 -[bb]-> p2
s -[a]-> p1
s -[b]-> p2



